<?xml version="1.0" encoding="UTF-8" standalone="no"?>
<!DOCTYPE svg PUBLIC "-//W3C//DTD SVG 1.1//EN"
 "http://www.w3.org/Graphics/SVG/1.1/DTD/svg11.dtd">
<!-- Generated by graphviz version 2.30.1 (20130221.2233)
 -->
<!-- Title: foo Pages: 1 -->
<svg width="511pt" height="336pt"
 viewBox="0.00 0.00 511.00 336.00" xmlns="http://www.w3.org/2000/svg" xmlns:xlink="http://www.w3.org/1999/xlink">
<g id="graph0" class="graph" transform="scale(1 1) rotate(0) translate(4 332)">
<title>foo</title>
<polygon fill="white" stroke="white" points="-4,5 -4,-332 508,-332 508,5 -4,5"/>
<!-- marketres -->
<g id="node1" class="node"><title>marketres</title>
<ellipse fill="none" stroke="black" cx="198" cy="-18" rx="68.3664" ry="18"/>
<text text-anchor="middle" x="198" y="-14.3" font-family="Times,serif" font-size="14.00">market research</text>
</g>
<!-- sociodem -->
<g id="node2" class="node"><title>sociodem</title>
<ellipse fill="none" stroke="black" cx="130" cy="-211" rx="126.919" ry="26.7407"/>
<text text-anchor="middle" x="130" y="-214.8" font-family="Times,serif" font-size="14.00">socio&#45;demographic data:</text>
<text text-anchor="middle" x="130" y="-199.8" font-family="Times,serif" font-size="14.00">user, post, and friendlist field</text>
</g>
<!-- sociodem&#45;&gt;marketres -->
<g id="edge2" class="edge"><title>sociodem&#45;&gt;marketres</title>
<path fill="none" stroke="black" d="M104.173,-184.551C95.3601,-174.14 86.5795,-161.396 82,-148 71.0736,-116.038 63.7408,-100.417 82,-72 94.1957,-53.0195 115.06,-40.752 135.761,-32.8605"/>
<polygon fill="black" stroke="black" points="136.954,-36.1511 145.228,-29.5343 134.633,-29.5468 136.954,-36.1511"/>
</g>
<!-- external databases\nRicardo to add database\nnames here -->
<g id="node7" class="node"><title>external databases\nRicardo to add database\nnames here</title>
<ellipse fill="none" stroke="black" cx="198" cy="-110" rx="106.161" ry="37.4533"/>
<text text-anchor="middle" x="198" y="-121.3" font-family="Times,serif" font-size="14.00">external databases</text>
<text text-anchor="middle" x="198" y="-106.3" font-family="Times,serif" font-size="14.00">Ricardo to add database</text>
<text text-anchor="middle" x="198" y="-91.3" font-family="Times,serif" font-size="14.00">names here</text>
</g>
<!-- sociodem&#45;&gt;external databases\nRicardo to add database\nnames here -->
<g id="edge6" class="edge"><title>sociodem&#45;&gt;external databases\nRicardo to add database\nnames here</title>
<path fill="none" stroke="black" d="M147.689,-184.247C153.837,-175.296 160.919,-164.986 167.791,-154.981"/>
<polygon fill="black" stroke="black" points="170.713,-156.909 173.489,-146.684 164.943,-152.946 170.713,-156.909"/>
</g>
<!-- Facebook application\nuser, post, and friendlist fields -->
<g id="node3" class="node"><title>Facebook application\nuser, post, and friendlist fields</title>
<ellipse fill="none" stroke="black" cx="130" cy="-301" rx="130.223" ry="26.7407"/>
<text text-anchor="middle" x="130" y="-304.8" font-family="Times,serif" font-size="14.00">Facebook application</text>
<text text-anchor="middle" x="130" y="-289.8" font-family="Times,serif" font-size="14.00">user, post, and friendlist fields</text>
</g>
<!-- Facebook application\nuser, post, and friendlist fields&#45;&gt;sociodem -->
<g id="edge1" class="edge"><title>Facebook application\nuser, post, and friendlist fields&#45;&gt;sociodem</title>
<path fill="none" stroke="black" d="M130,-274.073C130,-265.999 130,-256.943 130,-248.296"/>
<polygon fill="black" stroke="black" points="133.5,-248.046 130,-238.046 126.5,-248.046 133.5,-248.046"/>
</g>
<!-- ip data -->
<g id="node4" class="node"><title>ip data</title>
<ellipse fill="none" stroke="black" cx="413" cy="-301" rx="35.1455" ry="18"/>
<text text-anchor="middle" x="413" y="-297.3" font-family="Times,serif" font-size="14.00">ip data</text>
</g>
<!-- geolocation -->
<g id="node5" class="node"><title>geolocation</title>
<ellipse fill="none" stroke="black" cx="413" cy="-211" rx="52.9443" ry="18"/>
<text text-anchor="middle" x="413" y="-207.3" font-family="Times,serif" font-size="14.00">geolocation</text>
</g>
<!-- ip data&#45;&gt;geolocation -->
<g id="edge3" class="edge"><title>ip data&#45;&gt;geolocation</title>
<path fill="none" stroke="black" d="M413,-282.614C413,-270.24 413,-253.369 413,-239.22"/>
<polygon fill="black" stroke="black" points="416.5,-239.05 413,-229.05 409.5,-239.05 416.5,-239.05"/>
</g>
<!-- Jacson to add\nvariable names here -->
<g id="node6" class="node"><title>Jacson to add\nvariable names here</title>
<ellipse fill="none" stroke="black" cx="413" cy="-110" rx="90.2645" ry="26.7407"/>
<text text-anchor="middle" x="413" y="-113.8" font-family="Times,serif" font-size="14.00">Jacson to add</text>
<text text-anchor="middle" x="413" y="-98.8" font-family="Times,serif" font-size="14.00">variable names here</text>
</g>
<!-- geolocation&#45;&gt;Jacson to add\nvariable names here -->
<g id="edge4" class="edge"><title>geolocation&#45;&gt;Jacson to add\nvariable names here</title>
<path fill="none" stroke="black" d="M413,-192.756C413,-180.242 413,-162.858 413,-147.336"/>
<polygon fill="black" stroke="black" points="416.5,-146.971 413,-136.971 409.5,-146.971 416.5,-146.971"/>
</g>
<!-- Jacson to add\nvariable names here&#45;&gt;marketres -->
<g id="edge5" class="edge"><title>Jacson to add\nvariable names here&#45;&gt;marketres</title>
<path fill="none" stroke="black" d="M362.048,-87.6713C325.613,-72.4193 277.062,-52.0958 242.248,-37.5224"/>
<polygon fill="black" stroke="black" points="243.39,-34.2063 232.814,-33.5734 240.687,-40.6634 243.39,-34.2063"/>
</g>
<!-- external databases\nRicardo to add database\nnames here&#45;&gt;marketres -->
<g id="edge7" class="edge"><title>external databases\nRicardo to add database\nnames here&#45;&gt;marketres</title>
<path fill="none" stroke="black" d="M198,-72.3936C198,-63.731 198,-54.6382 198,-46.4614"/>
<polygon fill="black" stroke="black" points="201.5,-46.3529 198,-36.3529 194.5,-46.3529 201.5,-46.3529"/>
</g>
</g>
</svg>
