"GHO","PUBLISHSTATE","YEAR","REGION","WORLDBANKINCOMEGROUP","COUNTRY","Display Value","Numeric","Low","High","Comments"
"MDG_0000000026","PUBLISHED","1990","EMR","","AFG","1300 [680-2500]","1300","680","2500",""
"MDG_0000000026","PUBLISHED","1995","AFR","","AGO","1200 [540-3000]","1200","540","3000",""
"MDG_0000000026","PUBLISHED","2000","AFR","","AGO","890 [400-2000]","890","400","2000",""
"MDG_0000000026","PUBLISHED","2005","AFR","","AGO","650 [300-1500]","650","300","1500",""
"MDG_0000000026","PUBLISHED","2010","AFR","","AGO","450 [210-1000]","450","210","1000",""
"MDG_0000000026","PUBLISHED","2010","EUR","","ALB","27 [17-43]","27","17","43",""
"MDG_0000000026","PUBLISHED","1990","EMR","","ARE","24 [10-55]","24","10","55",""
"MDG_0000000026","PUBLISHED","1995","EMR","","ARE","16 [7-39]","16","7","39",""
"MDG_0000000026","PUBLISHED","2000","EMR","","ARE","14 [6-31]","14","6","31",""
"MDG_0000000026","PUBLISHED","2000","AMR","","ARG","63 [55-71]","63","55","71",""
"MDG_0000000026","PUBLISHED","2005","AMR","","ARG","69 [61-78]","69","61","78",""
"MDG_0000000026","PUBLISHED","2010","AMR","","ARG","77 [67-87]","77","67","87",""
"MDG_0000000026","PUBLISHED","1990","EUR","","ARM","46 [30-72]","46","30","72",""
"MDG_0000000026","PUBLISHED","1995","WPR","","AUS","13 [10-15]","13","10","15",""
"MDG_0000000026","PUBLISHED","2000","WPR","","AUS","9 [7-11]","9","7","11",""
"MDG_0000000026","PUBLISHED","2005","WPR","","AUS","7 [5-10]","7","5","10",""
"MDG_0000000026","PUBLISHED","2010","WPR","","AUS","7 [4-12]","7","4","12",""
"MDG_0000000026","PUBLISHED","2010","EUR","","AUT","4 [3-7]","4","3","7",""
"MDG_0000000026","PUBLISHED","1990","EUR","","AZE","56 [36-89]","56","36","89",""
"MDG_0000000026","PUBLISHED","1995","EUR","","AZE","81 [51-130]","81","51","130",""
"MDG_0000000026","PUBLISHED","2000","EUR","","AZE","65 [41-100]","65","41","100",""
"MDG_0000000026","PUBLISHED","2000","AFR","","BDI","1000 [500-2400]","1000","500","2400",""
"MDG_0000000026","PUBLISHED","2005","AFR","","BDI","910 [420-2100]","910","420","2100",""
"MDG_0000000026","PUBLISHED","2010","AFR","","BDI","800 [370-1800]","800","370","1800",""
"MDG_0000000026","PUBLISHED","1990","EUR","","BEL","10 [7-17]","10","7","17",""
"MDG_0000000026","PUBLISHED","1995","EUR","","BEL","10 [7-16]","10","7","16",""
"MDG_0000000026","PUBLISHED","1995","AFR","","BEN","660 [430-1200]","660","430","1200",""
"MDG_0000000026","PUBLISHED","2000","AFR","","BEN","530 [350-940]","530","350","940",""
"MDG_0000000026","PUBLISHED","2005","AFR","","BEN","430 [290-750]","430","290","750",""
"MDG_0000000026","PUBLISHED","2010","AFR","","BEN","350 [220-600]","350","220","600",""
"MDG_0000000026","PUBLISHED","2010","AFR","","BFA","300 [190-520]","300","190","520",""
"MDG_0000000026","PUBLISHED","1990","SEAR","","BGD","800 [450-1400]","800","450","1400",""
"MDG_0000000026","PUBLISHED","1995","SEAR","","BGD","560 [320-1000]","560","320","1000",""
"MDG_0000000026","PUBLISHED","2000","SEAR","","BGD","400 [230-720]","400","230","720",""
"MDG_0000000026","PUBLISHED","2000","EUR","","BGR","28 [22-36]","28","22","36",""
"MDG_0000000026","PUBLISHED","2005","EUR","","BGR","13 [10-18]","13","10","18",""
"MDG_0000000026","PUBLISHED","2010","EUR","","BGR","11 [8-15]","11","8","15",""
"MDG_0000000026","PUBLISHED","1990","EMR","","BHR","23 [14-37]","23","14","37",""
"MDG_0000000026","PUBLISHED","1995","EMR","","BHR","21 [13-33]","21","13","33",""
"MDG_0000000026","PUBLISHED","1995","AMR","","BHS","56 [33-87]","56","33","87",""
"MDG_0000000026","PUBLISHED","2000","AMR","","BHS","56 [33-87]","56","33","87",""
"MDG_0000000026","PUBLISHED","2005","AMR","","BHS","47 [27-73]","47","27","73",""
"MDG_0000000026","PUBLISHED","2010","AMR","","BHS","47 [28-75]","47","28","75",""
"MDG_0000000026","PUBLISHED","2010","EUR","","BIH","8 [5-14]","8","5","14",""
"MDG_0000000026","PUBLISHED","1990","EUR","","BLR","37 [30-44]","37","30","44",""
"MDG_0000000026","PUBLISHED","1995","EUR","","BLR","28 [23-35]","28","23","35",""
"MDG_0000000026","PUBLISHED","2000","EUR","","BLR","31 [25-38]","31","25","38",""
"MDG_0000000026","PUBLISHED","2000","AMR","","BLZ","100 [70-150]","100","70","150",""
"MDG_0000000026","PUBLISHED","2005","AMR","","BLZ","77 [52-110]","77","52","110",""
"MDG_0000000026","PUBLISHED","2010","AMR","","BLZ","53 [33-88]","53","33","88",""
"MDG_0000000026","PUBLISHED","1990","AMR","","BOL","450 [290-700]","450","290","700",""
"MDG_0000000026","PUBLISHED","1995","AMR","","BOL","360 [230-540]","360","230","540",""
"MDG_0000000026","PUBLISHED","1995","AMR","","BRA","96 [63-150]","96","63","150",""
"MDG_0000000026","PUBLISHED","2000","AMR","","BRA","81 [52-120]","81","52","120",""
"MDG_0000000026","PUBLISHED","2005","AMR","","BRA","67 [43-100]","67","43","100",""
"MDG_0000000026","PUBLISHED","2010","AMR","","BRA","56 [36-85]","56","36","85",""
"MDG_0000000026","PUBLISHED","2010","AMR","","BRB","51 [19-140]","51","19","140",""
"MDG_0000000026","PUBLISHED","1990","WPR","","BRN","29 [17-49]","29","17","49",""
"MDG_0000000026","PUBLISHED","1995","WPR","","BRN","25 [15-42]","25","15","42",""
"MDG_0000000026","PUBLISHED","2000","WPR","","BRN","24 [15-40]","24","15","40",""
"MDG_0000000026","PUBLISHED","2005","SEAR","","BTN","270 [140-490]","270","140","490",""
"MDG_0000000026","PUBLISHED","2010","SEAR","","BTN","180 [95-320]","180","95","320",""
"MDG_0000000026","PUBLISHED","1990","AFR","","BWA","140 [65-280]","140","65","280",""
"MDG_0000000026","PUBLISHED","1995","AFR","","BWA","210 [110-320]","210","110","320",""
"MDG_0000000026","PUBLISHED","1995","AFR","","CAF","1000 [590-1900]","1000","590","1900",""
"MDG_0000000026","PUBLISHED","2000","AFR","","CAF","1000 [600-1900]","1000","600","1900",""
"MDG_0000000026","PUBLISHED","2005","AFR","","CAF","1000 [600-1800]","1000","600","1800",""
"MDG_0000000026","PUBLISHED","2010","AFR","","CAF","890 [530-1700]","890","530","1700",""
"MDG_0000000026","PUBLISHED","2010","AMR","","CAN","12 [9-16]","12","9","16",""
"MDG_0000000026","PUBLISHED","1990","EUR","","CHE","7 [5-9]","7","5","9",""
"MDG_0000000026","PUBLISHED","1995","EUR","","CHE","6 [4-9]","6","4","9",""
"MDG_0000000026","PUBLISHED","2000","EUR","","CHE","6 [4-9]","6","4","9",""
"MDG_0000000026","PUBLISHED","2005","AMR","","CHL","26 [22-30]","26","22","30",""
"MDG_0000000026","PUBLISHED","2010","AMR","","CHL","25 [21-29]","25","21","29",""
"MDG_0000000026","PUBLISHED","1990","WPR","","CHN","120 [78-200]","120","78","200",""
"MDG_0000000026","PUBLISHED","1995","WPR","","CHN","84 [54-130]","84","54","130",""
"MDG_0000000026","PUBLISHED","1995","AFR","","CIV","660 [430-1200]","660","430","1200",""
"MDG_0000000026","PUBLISHED","2000","AFR","","CIV","590 [390-970]","590","390","970",""
"MDG_0000000026","PUBLISHED","2005","AFR","","CIV","510 [330-840]","510","330","840",""
"MDG_0000000026","PUBLISHED","2010","AFR","","CIV","400 [260-680]","400","260","680",""
"MDG_0000000026","PUBLISHED","2010","AFR","","CMR","690 [430-1200]","690","430","1200",""
"MDG_0000000026","PUBLISHED","1990","AFR","","COD","930 [530-1900]","930","530","1900",""
"MDG_0000000026","PUBLISHED","1995","AFR","","COD","870 [490-1800]","870","490","1800",""
"MDG_0000000026","PUBLISHED","2000","AFR","","COD","770 [430-1600]","770","430","1600",""
"MDG_0000000026","PUBLISHED","2005","AFR","","COD","660 [370-1400]","660","370","1400",""
"MDG_0000000026","PUBLISHED","2005","AFR","","COG","550 [320-1100]","550","320","1100",""
"MDG_0000000026","PUBLISHED","2010","AFR","","COG","560 [320-1100]","560","320","1100",""
"MDG_0000000026","PUBLISHED","1990","AMR","","COL","170 [150-190]","170","150","190",""
"MDG_0000000026","PUBLISHED","1995","AMR","","COL","130 [120-150]","130","120","150",""
"MDG_0000000026","PUBLISHED","1995","AFR","","COM","380 [170-890]","380","170","890",""
"MDG_0000000026","PUBLISHED","2000","AFR","","COM","340 [150-840]","340","150","840",""
"MDG_0000000026","PUBLISHED","2005","AFR","","COM","310 [140-760]","310","140","760",""
"MDG_0000000026","PUBLISHED","2010","AFR","","COM","280 [120-680]","280","120","680",""
"MDG_0000000026","PUBLISHED","2010","AFR","","CPV","79 [33-190]","79","33","190",""
"MDG_0000000026","PUBLISHED","1990","AMR","","CRI","38 [32-45]","38","32","45",""
"MDG_0000000026","PUBLISHED","1995","AMR","","CRI","45 [38-54]","45","38","54",""
"MDG_0000000026","PUBLISHED","2000","AMR","","CRI","47 [39-57]","47","39","57",""
"MDG_0000000026","PUBLISHED","2005","AMR","","CRI","50 [41-61]","50","41","61",""
"MDG_0000000026","PUBLISHED","2005","AMR","","CUB","67 [56-78]","67","56","78",""
"MDG_0000000026","PUBLISHED","2010","AMR","","CUB","73 [60-87]","73","60","87",""
"MDG_0000000026","PUBLISHED","1990","EUR","","CYP","17 [7-40]","17","7","40",""
"MDG_0000000026","PUBLISHED","1995","EUR","","CYP","17 [8-40]","17","8","40",""
"MDG_0000000026","PUBLISHED","1995","EUR","","CZE","9 [7-12]","9","7","12",""
"MDG_0000000026","PUBLISHED","2000","EUR","","CZE","7 [5-10]","7","5","10",""
"MDG_0000000026","PUBLISHED","2005","EUR","","CZE","7 [5-10]","7","5","10",""
"MDG_0000000026","PUBLISHED","2010","EUR","","CZE","5 [4-8]","5","4","8",""
"MDG_0000000026","PUBLISHED","2010","EUR","","DEU","7 [6-9]","7","6","9",""
"MDG_0000000026","PUBLISHED","1990","EMR","","DJI","290 [130-660]","290","130","660",""
"MDG_0000000026","PUBLISHED","1995","EMR","","DJI","290 [130-670]","290","130","670",""
"MDG_0000000026","PUBLISHED","2000","EMR","","DJI","290 [140-620]","290","140","620",""
"MDG_0000000026","PUBLISHED","2005","EMR","","DJI","220 [110-450]","220","110","450",""
"MDG_0000000026","PUBLISHED","2005","EUR","","DNK","7 [4-9]","7","4","9",""
"MDG_0000000026","PUBLISHED","2010","EUR","","DNK","12 [7-23]","12","7","23",""
"MDG_0000000026","PUBLISHED","1990","AMR","","DOM","220 [150-320]","220","150","320",""
"MDG_0000000026","PUBLISHED","1995","AMR","","DOM","170 [120-250]","170","120","250",""
"MDG_0000000026","PUBLISHED","1995","AFR","","DZA","180 [92-330]","180","92","330",""
"MDG_0000000026","PUBLISHED","2000","AFR","","DZA","140 [72-260]","140","72","260",""
"MDG_0000000026","PUBLISHED","2005","AFR","","DZA","110 [58-210]","110","58","210",""
"MDG_0000000026","PUBLISHED","2010","AFR","","DZA","97 [50-180]","97","50","180",""
"MDG_0000000026","PUBLISHED","1990","EMR","","EGY","230 [140-370]","230","140","370",""
"MDG_0000000026","PUBLISHED","1995","EMR","","EGY","150 [93-240]","150","93","240",""
"MDG_0000000026","PUBLISHED","2000","EMR","","EGY","100 [61-160]","100","61","160",""
"MDG_0000000026","PUBLISHED","2005","EMR","","EGY","78 [47-120]","78","47","120",""
"MDG_0000000026","PUBLISHED","2005","AFR","","ERI","300 [170-570]","300","170","570",""
"MDG_0000000026","PUBLISHED","2010","AFR","","ERI","240 [130-460]","240","130","460",""
"MDG_0000000026","PUBLISHED","1990","EUR","","ESP","7 [5-8]","7","5","8",""
"MDG_0000000026","PUBLISHED","1995","EUR","","ESP","4 [3-6]","4","3","6",""
"MDG_0000000026","PUBLISHED","1995","EUR","","EST","46 [31-67]","46","31","67",""
"MDG_0000000026","PUBLISHED","2000","EUR","","EST","28 [18-43]","28","18","43",""
"MDG_0000000026","PUBLISHED","2005","EUR","","EST","23 [14-36]","23","14","36",""
"MDG_0000000026","PUBLISHED","2010","EUR","","EST","2 [1-4]","2","1","4",""
"MDG_0000000026","PUBLISHED","1990","EUR","","FIN","7 [4-10]","7","4","10",""
"MDG_0000000026","PUBLISHED","1995","EUR","","FIN","5 [3-8]","5","3","8",""
"MDG_0000000026","PUBLISHED","2000","EUR","","FIN","5 [3-9]","5","3","9",""
"MDG_0000000026","PUBLISHED","2005","EUR","","FIN","6 [4-11]","6","4","11",""
"MDG_0000000026","PUBLISHED","2005","WPR","","FJI","29 [16-52]","29","16","52",""
"MDG_0000000026","PUBLISHED","2010","WPR","","FJI","26 [15-48]","26","15","48",""
"MDG_0000000026","PUBLISHED","1990","EUR","","FRA","13 [11-15]","13","11","15",""
"MDG_0000000026","PUBLISHED","1995","EUR","","FRA","13 [11-15]","13","11","15",""
"MDG_0000000026","PUBLISHED","1995","WPR","","FSM","130 [58-290]","130","58","290",""
"MDG_0000000026","PUBLISHED","2000","WPR","","FSM","130 [57-280]","130","57","280",""
"MDG_0000000026","PUBLISHED","2005","WPR","","FSM","110 [50-260]","110","50","260",""
"MDG_0000000026","PUBLISHED","2010","WPR","","FSM","100 [44-230]","100","44","230",""
"MDG_0000000026","PUBLISHED","1990","AFR","","GAB","270 [150-530]","270","150","530",""
"MDG_0000000026","PUBLISHED","1990","EUR","","GBR","10 [9-12]","10","9","12",""
"MDG_0000000026","PUBLISHED","1995","EUR","","GBR","10 [9-12]","10","9","12",""
"MDG_0000000026","PUBLISHED","2000","EUR","","GBR","12 [10-14]","12","10","14",""
"MDG_0000000026","PUBLISHED","2005","EUR","","GBR","13 [11-15]","13","11","15",""
"MDG_0000000026","PUBLISHED","2005","EUR","","GEO","61 [39-95]","61","39","95",""
"MDG_0000000026","PUBLISHED","2010","EUR","","GEO","67 [43-110]","67","43","110",""
"MDG_0000000026","PUBLISHED","1990","AFR","","GHA","580 [340-1100]","580","340","1100",""
"MDG_0000000026","PUBLISHED","1995","AFR","","GHA","590 [340-1100]","590","340","1100",""
"MDG_0000000026","PUBLISHED","1995","AFR","","GIN","1100 [680-2000]","1100","680","2000",""
"MDG_0000000026","PUBLISHED","2000","AFR","","GIN","970 [600-1700]","970","600","1700",""
"MDG_0000000026","PUBLISHED","2005","AFR","","GIN","800 [490-1400]","800","490","1400",""
"MDG_0000000026","PUBLISHED","2010","AFR","","GIN","610 [380-1100]","610","380","1100",""
"MDG_0000000026","PUBLISHED","1990","AFR","","GMB","700 [310-1700]","700","310","1700",""
"MDG_0000000026","PUBLISHED","1990","AFR","","GNB","1100 [500-2800]","1100","500","2800",""
"MDG_0000000026","PUBLISHED","1995","AFR","","GNB","1000 [470-2600]","1000","470","2600",""
"MDG_0000000026","PUBLISHED","2000","AFR","","GNB","970 [450-2300]","970","450","2300",""
"MDG_0000000026","PUBLISHED","2005","AFR","","GNB","890 [420-2100]","890","420","2100",""
"MDG_0000000026","PUBLISHED","2005","AFR","","GNQ","270 [130-630]","270","130","630",""
"MDG_0000000026","PUBLISHED","2010","AFR","","GNQ","240 [120-510]","240","120","510",""
"MDG_0000000026","PUBLISHED","1990","EUR","","GRC","6 [4-9]","6","4","9",""
"MDG_0000000026","PUBLISHED","1995","EUR","","GRC","2 [1-3]","2","1","3",""
"MDG_0000000026","PUBLISHED","1995","AMR","","GRD","32 [20-52]","32","20","52",""
"MDG_0000000026","PUBLISHED","2000","AMR","","GRD","27 [17-43]","27","17","43",""
"MDG_0000000026","PUBLISHED","2005","AMR","","GRD","25 [16-39]","25","16","39",""
"MDG_0000000026","PUBLISHED","2010","AMR","","GRD","24 [15-38]","24","15","38",""
"MDG_0000000026","PUBLISHED","1990","AMR","","GTM","160 [150-190]","160","150","190",""
"MDG_0000000026","PUBLISHED","1990","AMR","","GUY","180 [120-280]","180","120","280",""
"MDG_0000000026","PUBLISHED","1995","AMR","","GUY","170 [110-250]","170","110","250",""
"MDG_0000000026","PUBLISHED","2000","AMR","","GUY","220 [150-320]","220","150","320",""
"MDG_0000000026","PUBLISHED","2005","AMR","","GUY","280 [180-420]","280","180","420",""
"MDG_0000000026","PUBLISHED","2005","AMR","","HND","130 [78-200]","130","78","200",""
"MDG_0000000026","PUBLISHED","2010","AMR","","HND","100 [64-160]","100","64","160",""
"MDG_0000000026","PUBLISHED","1990","EUR","","HRV","8 [6-12]","8","6","12",""
"MDG_0000000026","PUBLISHED","1995","EUR","","HRV","14 [9-20]","14","9","20",""
"MDG_0000000026","PUBLISHED","2000","AMR","","HTI","460 [280-780]","460","280","780",""
"MDG_0000000026","PUBLISHED","2005","AMR","","HTI","410 [240-690]","410","240","690",""
"MDG_0000000026","PUBLISHED","2010","AMR","","HTI","350 [210-610]","350","210","610",""
"MDG_0000000026","PUBLISHED","1990","EUR","","HUN","23 [18-28]","23","18","28",""
"MDG_0000000026","PUBLISHED","1990","SEAR","","IDN","600 [350-980]","600","350","980",""
"MDG_0000000026","PUBLISHED","1995","SEAR","","IDN","420 [250-690]","420","250","690",""
"MDG_0000000026","PUBLISHED","2000","SEAR","","IDN","340 [200-550]","340","200","550",""
"MDG_0000000026","PUBLISHED","2005","SEAR","","IDN","270 [160-440]","270","160","440",""
"MDG_0000000026","PUBLISHED","2005","SEAR","","IND","280 [190-420]","280","190","420",""
"MDG_0000000026","PUBLISHED","2010","SEAR","","IND","200 [140-310]","200","140","310",""
"MDG_0000000026","PUBLISHED","1990","EUR","","IRL","6 [4-11]","6","4","11",""
"MDG_0000000026","PUBLISHED","1995","EUR","","IRL","4 [2-7]","4","2","7",""
"MDG_0000000026","PUBLISHED","2000","EMR","","IRN","48 [34-70]","48","34","70",""
"MDG_0000000026","PUBLISHED","2005","EMR","","IRN","30 [21-43]","30","21","43",""
"MDG_0000000026","PUBLISHED","2010","EMR","","IRN","21 [15-30]","21","15","30",""
"MDG_0000000026","PUBLISHED","1990","EMR","","IRQ","89 [48-160]","89","48","160",""
"MDG_0000000026","PUBLISHED","1990","EUR","","ISL","8 [5-13]","8","5","13",""
"MDG_0000000026","PUBLISHED","1995","EUR","","ISL","7 [4-12]","7","4","12",""
"MDG_0000000026","PUBLISHED","2000","EUR","","ISL","7 [4-11]","7","4","11",""
"MDG_0000000026","PUBLISHED","2005","EUR","","ISL","6 [3-9]","6","3","9",""
"MDG_0000000026","PUBLISHED","2005","EUR","","ISR","7 [5-9]","7","5","9",""
"MDG_0000000026","PUBLISHED","2010","EUR","","ISR","7 [5-10]","7","5","10",""
"MDG_0000000026","PUBLISHED","1990","EUR","","ITA","10 [8-12]","10","8","12",""
"MDG_0000000026","PUBLISHED","1995","EUR","","ITA","6 [4-8]","6","4","8",""
"MDG_0000000026","PUBLISHED","2000","AMR","","JAM","83 [58-120]","83","58","120",""
"MDG_0000000026","PUBLISHED","2005","AMR","","JAM","89 [63-130]","89","63","130",""
"MDG_0000000026","PUBLISHED","2010","AMR","","JAM","110 [77-170]","110","77","170",""
"MDG_0000000026","PUBLISHED","1990","EMR","","JOR","110 [63-190]","110","63","190",""
"MDG_0000000026","PUBLISHED","1990","WPR","","JPN","12 [11-14]","12","11","14",""
"MDG_0000000026","PUBLISHED","1995","WPR","","JPN","9 [8-11]","9","8","11",""
"MDG_0000000026","PUBLISHED","2000","WPR","","JPN","10 [8-11]","10","8","11",""
"MDG_0000000026","PUBLISHED","2005","WPR","","JPN","7 [6-8]","7","6","8",""
"MDG_0000000026","PUBLISHED","2005","EUR","","KAZ","50 [43-56]","50","43","56",""
"MDG_0000000026","PUBLISHED","2010","EUR","","KAZ","51 [44-58]","51","44","58",""
"MDG_0000000026","PUBLISHED","1990","AFR","","KEN","400 [240-710]","400","240","710",""
"MDG_0000000026","PUBLISHED","1995","AFR","","KEN","460 [290-770]","460","290","770",""
"MDG_0000000026","PUBLISHED","2000","AFR","","KEN","490 [310-760]","490","310","760",""
"MDG_0000000026","PUBLISHED","2000","EUR","","KGZ","82 [50-130]","82","50","130",""
"MDG_0000000026","PUBLISHED","2005","EUR","","KGZ","77 [47-120]","77","47","120",""
"MDG_0000000026","PUBLISHED","2010","EUR","","KGZ","71 [44-110]","71","44","110",""
"MDG_0000000026","PUBLISHED","1990","WPR","","KHM","830 [510-1400]","830","510","1400",""
"MDG_0000000026","PUBLISHED","1990","WPR","","KOR","18 [15-20]","18","15","20",""
"MDG_0000000026","PUBLISHED","1995","WPR","","KOR","18 [16-21]","18","16","21",""
"MDG_0000000026","PUBLISHED","2000","WPR","","KOR","19 [16-22]","19","16","22",""
"MDG_0000000026","PUBLISHED","2005","WPR","","KOR","17 [15-20]","17","15","20",""
"MDG_0000000026","PUBLISHED","2005","EMR","","KWT","8 [5-12]","8","5","12",""
"MDG_0000000026","PUBLISHED","2010","EMR","","KWT","14 [8-23]","14","8","23",""
"MDG_0000000026","PUBLISHED","1990","WPR","","LAO","1600 [910-2800]","1600","910","2800",""
"MDG_0000000026","PUBLISHED","1995","WPR","","LAO","1200 [660-2000]","1200","660","2000",""
"MDG_0000000026","PUBLISHED","2000","WPR","","LAO","870 [490-1500]","870","490","1500",""
"MDG_0000000026","PUBLISHED","2000","EMR","","LBN","38 [21-69]","38","21","69",""
"MDG_0000000026","PUBLISHED","2005","EMR","","LBN","31 [18-55]","31","18","55",""
"MDG_0000000026","PUBLISHED","2010","EMR","","LBN","25 [14-45]","25","14","45",""
"MDG_0000000026","PUBLISHED","1990","AFR","","LBR","1200 [670-2500]","1200","670","2500",""
"MDG_0000000026","PUBLISHED","1990","EMR","","LBY","99 [40-230]","99","40","230",""
"MDG_0000000026","PUBLISHED","1995","EMR","","LBY","76 [32-180]","76","32","180",""
"MDG_0000000026","PUBLISHED","2000","EMR","","LBY","67 [28-160]","67","28","160",""
"MDG_0000000026","PUBLISHED","2005","EMR","","LBY","61 [26-140]","61","26","140",""
"MDG_0000000026","PUBLISHED","2010","AMR","","LCA","35 [22-54]","35","22","54",""
"MDG_0000000026","PUBLISHED","1990","SEAR","","LKA","85 [59-120]","85","59","120",""
"MDG_0000000026","PUBLISHED","1995","SEAR","","LKA","74 [52-110]","74","52","110",""
"MDG_0000000026","PUBLISHED","2000","SEAR","","LKA","58 [40-81]","58","40","81",""
"MDG_0000000026","PUBLISHED","2000","AFR","","LSO","690 [410-1100]","690","410","1100",""
"MDG_0000000026","PUBLISHED","2005","AFR","","LSO","720 [430-1200]","720","430","1200",""
"MDG_0000000026","PUBLISHED","2010","AFR","","LSO","620 [370-970]","620","370","970",""
"MDG_0000000026","PUBLISHED","1990","EUR","","LTU","34 [26-46]","34","26","46",""
"MDG_0000000026","PUBLISHED","1990","EUR","","LUX","6 [2-19]","6","2","19",""
"MDG_0000000026","PUBLISHED","1995","EUR","","LUX","11 [4-31]","11","4","31",""
"MDG_0000000026","PUBLISHED","2000","EUR","","LUX","11 [3-38]","11","3","38",""
"MDG_0000000026","PUBLISHED","2005","EUR","","LUX","17 [5-65]","17","5","65",""
"MDG_0000000026","PUBLISHED","2010","EUR","","LVA","34 [22-55]","34","22","55",""
"MDG_0000000026","PUBLISHED","1990","EMR","","MAR","300 [170-510]","300","170","510",""
"MDG_0000000026","PUBLISHED","1995","EMR","","MAR","230 [140-390]","230","140","390",""
"MDG_0000000026","PUBLISHED","2000","EMR","","MAR","170 [100-290]","170","100","290",""
"MDG_0000000026","PUBLISHED","2000","EUR","","MDA","39 [31-49]","39","31","49",""
"MDG_0000000026","PUBLISHED","2005","EUR","","MDA","25 [20-32]","25","20","32",""
"MDG_0000000026","PUBLISHED","2010","EUR","","MDA","41 [32-55]","41","32","55",""
"MDG_0000000026","PUBLISHED","1990","AFR","","MDG","640 [420-1100]","640","420","1100",""
"MDG_0000000026","PUBLISHED","1990","SEAR","","MDV","830 [480-1400]","830","480","1400",""
"MDG_0000000026","PUBLISHED","1995","SEAR","","MDV","390 [230-650]","390","230","650",""
"MDG_0000000026","PUBLISHED","2000","SEAR","","MDV","190 [110-310]","190","110","310",""
"MDG_0000000026","PUBLISHED","2005","SEAR","","MDV","94 [55-150]","94","55","150",""
"MDG_0000000026","PUBLISHED","2010","AMR","","MEX","50 [44-56]","50","44","56",""
"MDG_0000000026","PUBLISHED","1990","EUR","","MKD","16 [9-30]","16","9","30",""
"MDG_0000000026","PUBLISHED","1995","EUR","","MKD","14 [9-22]","14","9","22",""
"MDG_0000000026","PUBLISHED","2000","EUR","","MKD","15 [10-25]","15","10","25",""
"MDG_0000000026","PUBLISHED","2000","AFR","","MLI","740 [490-1300]","740","490","1300",""
"MDG_0000000026","PUBLISHED","2005","AFR","","MLI","620 [410-1100]","620","410","1100",""
"MDG_0000000026","PUBLISHED","2010","AFR","","MLI","540 [350-930]","540","350","930",""
"MDG_0000000026","PUBLISHED","1990","EUR","","MLT","14 [9-23]","14","9","23",""
"MDG_0000000026","PUBLISHED","1990","SEAR","","MMR","520 [300-910]","520","300","910",""
"MDG_0000000026","PUBLISHED","1995","SEAR","","MMR","380 [220-660]","380","220","660",""
"MDG_0000000026","PUBLISHED","2000","SEAR","","MMR","300 [170-510]","300","170","510",""
"MDG_0000000026","PUBLISHED","2005","SEAR","","MMR","230 [140-400]","230","140","400",""
"MDG_0000000026","PUBLISHED","2010","SEAR","","MMR","200 [120-330]","200","120","330",""
"MDG_0000000026","PUBLISHED","2010","EUR","","MNE","8 [5-14]","8","5","14",""
"MDG_0000000026","PUBLISHED","1990","WPR","","MNG","120 [54-300]","120","54","300",""
"MDG_0000000026","PUBLISHED","1995","WPR","","MNG","110 [51-270]","110","51","270",""
"MDG_0000000026","PUBLISHED","2000","WPR","","MNG","96 [42-220]","96","42","220",""
"MDG_0000000026","PUBLISHED","2000","AFR","","MOZ","710 [430-1300]","710","430","1300",""
"MDG_0000000026","PUBLISHED","2005","AFR","","MOZ","630 [390-1100]","630","390","1100",""
"MDG_0000000026","PUBLISHED","2010","AFR","","MOZ","490 [300-850]","490","300","850",""
"MDG_0000000026","PUBLISHED","1990","AFR","","MRT","760 [430-1500]","760","430","1500",""
"MDG_0000000026","PUBLISHED","1990","AFR","","MUS","68 [50-90]","68","50","90",""
"MDG_0000000026","PUBLISHED","1995","AFR","","MUS","66 [49-90]","66","49","90",""
"MDG_0000000026","PUBLISHED","2000","AFR","","MUS","28 [20-38]","28","20","38",""
"MDG_0000000026","PUBLISHED","2005","AFR","","MUS","32 [23-46]","32","23","46",""
"MDG_0000000026","PUBLISHED","2010","AFR","","MUS","60 [39-91]","60","39","91",""
"MDG_0000000026","PUBLISHED","2010","AFR","","MWI","460 [290-710]","460","290","710",""
"MDG_0000000026","PUBLISHED","1990","WPR","","MYS","53 [23-130]","53","23","130",""
"MDG_0000000026","PUBLISHED","1995","WPR","","MYS","44 [18-100]","44","18","100",""
"MDG_0000000026","PUBLISHED","2000","WPR","","MYS","39 [17-88]","39","17","88",""
"MDG_0000000026","PUBLISHED","2000","AFR","","NAM","280 [160-430]","280","160","430",""
"MDG_0000000026","PUBLISHED","2005","AFR","","NAM","310 [160-500]","310","160","500",""
"MDG_0000000026","PUBLISHED","2010","AFR","","NAM","200 [100-320]","200","100","320",""
"MDG_0000000026","PUBLISHED","1990","AFR","","NER","1200 [740-2300]","1200","740","2300",""
"MDG_0000000026","PUBLISHED","1995","AFR","","NGA","1000 [590-2100]","1000","590","2100",""
"MDG_0000000026","PUBLISHED","2000","AFR","","NGA","970 [570-1900]","970","570","1900",""
"MDG_0000000026","PUBLISHED","2005","AFR","","NGA","820 [480-1600]","820","480","1600",""
"MDG_0000000026","PUBLISHED","2010","AFR","","NGA","630 [370-1200]","630","370","1200",""
"MDG_0000000026","PUBLISHED","2010","AMR","","NIC","95 [54-170]","95","54","170",""
"MDG_0000000026","PUBLISHED","1990","EUR","","NLD","10 [8-13]","10","8","13",""
"MDG_0000000026","PUBLISHED","1995","EUR","","NLD","12 [9-14]","12","9","14",""
"MDG_0000000026","PUBLISHED","2000","EUR","","NLD","13 [11-16]","13","11","16",""
"MDG_0000000026","PUBLISHED","2000","EUR","","NOR","8 [5-13]","8","5","13",""
"MDG_0000000026","PUBLISHED","2005","EUR","","NOR","9 [6-15]","9","6","15",""
"MDG_0000000026","PUBLISHED","2010","EUR","","NOR","7 [4-12]","7","4","12",""
"MDG_0000000026","PUBLISHED","1990","SEAR","","NPL","770 [430-1400]","770","430","1400",""
"MDG_0000000026","PUBLISHED","1995","WPR","","NZL","13 [9-18]","13","9","18",""
"MDG_0000000026","PUBLISHED","2000","WPR","","NZL","12 [9-17]","12","9","17",""
"MDG_0000000026","PUBLISHED","2005","WPR","","NZL","15 [10-21]","15","10","21",""
"MDG_0000000026","PUBLISHED","2010","WPR","","NZL","15 [9-26]","15","9","26",""
"MDG_0000000026","PUBLISHED","2010","EMR","","OMN","32 [19-51]","32","19","51",""
"MDG_0000000026","PUBLISHED","1990","EMR","","PAK","490 [260-940]","490","260","940",""
"MDG_0000000026","PUBLISHED","1995","EMR","","PAK","440 [240-850]","440","240","850",""
"MDG_0000000026","PUBLISHED","2000","EMR","","PAK","380 [210-730]","380","210","730",""
"MDG_0000000026","PUBLISHED","2000","AMR","","PAN","110 [89-120]","110","89","120",""
"MDG_0000000026","PUBLISHED","2005","AMR","","PAN","100 [86-120]","100","86","120",""
"MDG_0000000026","PUBLISHED","2010","AMR","","PAN","92 [75-110]","92","75","110",""
"MDG_0000000026","PUBLISHED","1990","AMR","","PER","200 [120-330]","200","120","330",""
"MDG_0000000026","PUBLISHED","1995","WPR","","PHL","140 [91-200]","140","91","200",""
"MDG_0000000026","PUBLISHED","2000","WPR","","PHL","120 [78-170]","120","78","170",""
"MDG_0000000026","PUBLISHED","2005","WPR","","PHL","110 [73-160]","110","73","160",""
"MDG_0000000026","PUBLISHED","2010","WPR","","PHL","99 [66-140]","99","66","140",""
"MDG_0000000026","PUBLISHED","2010","WPR","","PNG","230 [100-510]","230","100","510",""
"MDG_0000000026","PUBLISHED","1990","EUR","","POL","17 [15-20]","17","15","20",""
"MDG_0000000026","PUBLISHED","1995","EUR","","POL","14 [12-17]","14","12","17",""
"MDG_0000000026","PUBLISHED","2000","EUR","","POL","8 [7-10]","8","7","10",""
"MDG_0000000026","PUBLISHED","2000","SEAR","","PRK","120 [52-280]","120","52","280",""
"MDG_0000000026","PUBLISHED","2005","SEAR","","PRK","85 [38-210]","85","38","210",""
"MDG_0000000026","PUBLISHED","2010","SEAR","","PRK","81 [36-180]","81","36","180",""
"MDG_0000000026","PUBLISHED","1990","EUR","","PRT","15 [11-19]","15","11","19",""
"MDG_0000000026","PUBLISHED","1995","EUR","","PRT","10 [7-13]","10","7","13",""
"MDG_0000000026","PUBLISHED","1995","AMR","","PRY","120 [70-200]","120","70","200",""
"MDG_0000000026","PUBLISHED","2000","AMR","","PRY","110 [68-180]","110","68","180",""
"MDG_0000000026","PUBLISHED","2005","AMR","","PRY","110 [66-180]","110","66","180",""
"MDG_0000000026","PUBLISHED","2010","AMR","","PRY","99 [60-160]","99","60","160",""
"MDG_0000000026","PUBLISHED","2010","EMR","","QAT","7 [3-16]","7","3","16",""
"MDG_0000000026","PUBLISHED","1990","EUR","","ROU","170 [150-200]","170","150","200",""
"MDG_0000000026","PUBLISHED","1995","EUR","","ROU","72 [61-83]","72","61","83",""
"MDG_0000000026","PUBLISHED","2000","EUR","","ROU","52 [44-60]","52","44","60",""
"MDG_0000000026","PUBLISHED","2000","EUR","","RUS","57 [49-64]","57","49","64",""
"MDG_0000000026","PUBLISHED","2005","EUR","","RUS","37 [31-42]","37","31","42",""
"MDG_0000000026","PUBLISHED","2010","EUR","","RUS","34 [26-42]","34","26","42",""
"MDG_0000000026","PUBLISHED","1990","AFR","","RWA","910 [560-1600]","910","560","1600",""
"MDG_0000000026","PUBLISHED","1995","AFR","","RWA","1000 [630-1800]","1000","630","1800",""
"MDG_0000000026","PUBLISHED","1995","EMR","","SAU","33 [17-63]","33","17","63",""
"MDG_0000000026","PUBLISHED","2000","EMR","","SAU","27 [15-51]","27","15","51",""
"MDG_0000000026","PUBLISHED","2005","EMR","","SAU","25 [14-47]","25","14","47",""
"MDG_0000000026","PUBLISHED","2010","EMR","","SAU","24 [13-45]","24","13","45",""
"MDG_0000000026","PUBLISHED","2010","EMR","","SDN","730 [380-1400]","730","380","1400",""
"MDG_0000000026","PUBLISHED","1990","AFR","","SEN","670 [430-1200]","670","430","1200",""
"MDG_0000000026","PUBLISHED","1995","AFR","","SEN","590 [370-1000]","590","370","1000",""
"MDG_0000000026","PUBLISHED","2000","AFR","","SEN","500 [320-870]","500","320","870",""
"MDG_0000000026","PUBLISHED","2000","WPR","","SGP","15 [10-23]","15","10","23",""
"MDG_0000000026","PUBLISHED","2005","WPR","","SGP","9 [5-16]","9","5","16",""
"MDG_0000000026","PUBLISHED","2010","WPR","","SGP","3 [2-7]","3","2","7",""
"MDG_0000000026","PUBLISHED","1990","WPR","","SLB","150 [65-340]","150","65","340",""
"MDG_0000000026","PUBLISHED","1995","WPR","","SLB","120 [56-280]","120","56","280",""
"MDG_0000000026","PUBLISHED","1995","AFR","","SLE","1300 [720-2600]","1300","720","2600",""
"MDG_0000000026","PUBLISHED","2000","AFR","","SLE","1300 [700-2500]","1300","700","2500",""
"MDG_0000000026","PUBLISHED","2005","AFR","","SLE","1000 [590-2000]","1000","590","2000",""
"MDG_0000000026","PUBLISHED","2010","AFR","","SLE","890 [510-1700]","890","510","1700",""
"MDG_0000000026","PUBLISHED","2010","AMR","","SLV","81 [55-120]","81","55","120",""
"MDG_0000000026","PUBLISHED","1990","EMR","","SOM","890 [380-2100]","890","380","2100",""
"MDG_0000000026","PUBLISHED","1995","EMR","","SOM","970 [420-2300]","970","420","2300",""
"MDG_0000000026","PUBLISHED","2000","EMR","","SOM","1000 [450-2400]","1000","450","2400",""
"MDG_0000000026","PUBLISHED","2005","EUR","","SRB","10 [8-14]","10","8","14",""
"MDG_0000000026","PUBLISHED","2010","EUR","","SRB","12 [9-17]","12","9","17",""
"MDG_0000000026","PUBLISHED","1990","AFR","","STP","150 [83-310]","150","83","310",""
"MDG_0000000026","PUBLISHED","1995","AFR","","STP","120 [67-250]","120","67","250",""
"MDG_0000000026","PUBLISHED","1995","AMR","","SUR","39 [27-57]","39","27","57",""
"MDG_0000000026","PUBLISHED","2000","AMR","","SUR","130 [97-170]","130","97","170",""
"MDG_0000000026","PUBLISHED","2005","AMR","","SUR","110 [84-150]","110","84","150",""
"MDG_0000000026","PUBLISHED","2010","AMR","","SUR","130 [89-190]","130","89","190",""
"MDG_0000000026","PUBLISHED","2010","EUR","","SVK","6 [4-10]","6","4","10",""
"MDG_0000000026","PUBLISHED","1990","EUR","","SVN","11 [7-18]","11","7","18",""
"MDG_0000000026","PUBLISHED","1995","EUR","","SVN","13 [8-22]","13","8","22",""
"MDG_0000000026","PUBLISHED","2000","EUR","","SVN","12 [7-24]","12","7","24",""
"MDG_0000000026","PUBLISHED","2005","EUR","","SWE","4 [2-6]","4","2","6",""
"MDG_0000000026","PUBLISHED","2010","EUR","","SWE","4 [2-7]","4","2","7",""
"MDG_0000000026","PUBLISHED","1990","AFR","","SWZ","300 [110-940]","300","110","940",""
"MDG_0000000026","PUBLISHED","1995","AFR","","SWZ","290 [140-780]","290","140","780",""
"MDG_0000000026","PUBLISHED","1995","EMR","","SYR","160 [91-260]","160","91","260",""
"MDG_0000000026","PUBLISHED","2000","EMR","","SYR","120 [68-190]","120","68","190",""
"MDG_0000000026","PUBLISHED","2005","EMR","","SYR","89 [52-140]","89","52","140",""
"MDG_0000000026","PUBLISHED","2010","EMR","","SYR","70 [41-110]","70","41","110",""
"MDG_0000000026","PUBLISHED","2010","AFR","","TCD","1100 [640-2000]","1100","640","2000",""
"MDG_0000000026","PUBLISHED","1990","AFR","","TGO","620 [360-1200]","620","360","1200",""
"MDG_0000000026","PUBLISHED","1995","AFR","","TGO","540 [320-1000]","540","320","1000",""
"MDG_0000000026","PUBLISHED","2000","AFR","","TGO","440 [270-820]","440","270","820",""
"MDG_0000000026","PUBLISHED","2005","AFR","","TGO","370 [230-670]","370","230","670",""
"MDG_0000000026","PUBLISHED","2005","SEAR","","THA","54 [37-80]","54","37","80",""
"MDG_0000000026","PUBLISHED","2010","SEAR","","THA","48 [33-70]","48","33","70",""
"MDG_0000000026","PUBLISHED","1990","EUR","","TJK","94 [41-220]","94","41","220",""
"MDG_0000000026","PUBLISHED","1995","EUR","","TJK","160 [67-380]","160","67","380",""
"MDG_0000000026","PUBLISHED","1995","EUR","","TKM","94 [39-220]","94","39","220",""
"MDG_0000000026","PUBLISHED","2000","EUR","","TKM","91 [39-200]","91","39","200",""
"MDG_0000000026","PUBLISHED","2005","EUR","","TKM","76 [33-170]","76","33","170",""
"MDG_0000000026","PUBLISHED","2010","EUR","","TKM","67 [29-150]","67","29","150",""
"MDG_0000000026","PUBLISHED","2010","SEAR","","TLS","300 [160-560]","300","160","560",""
"MDG_0000000026","PUBLISHED","1990","WPR","","TON","67 [29-150]","67","29","150",""
"MDG_0000000026","PUBLISHED","1995","WPR","","TON","86 [38-200]","86","38","200",""
"MDG_0000000026","PUBLISHED","2000","WPR","","TON","87 [39-200]","87","39","200",""
"MDG_0000000026","PUBLISHED","2005","WPR","","TON","100 [44-220]","100","44","220",""
"MDG_0000000026","PUBLISHED","2005","AMR","","TTO","59 [44-79]","59","44","79",""
"MDG_0000000026","PUBLISHED","2010","AMR","","TTO","46 [26-84]","46","26","84",""
"MDG_0000000026","PUBLISHED","1990","EMR","","TUN","130 [70-250]","130","70","250",""
"MDG_0000000026","PUBLISHED","1995","EMR","","TUN","110 [58-210]","110","58","210",""
"MDG_0000000026","PUBLISHED","1995","EUR","","TUR","51 [33-79]","51","33","79",""
"MDG_0000000026","PUBLISHED","2000","EUR","","TUR","39 [26-61]","39","26","61",""
"MDG_0000000026","PUBLISHED","2005","EUR","","TUR","28 [19-44]","28","19","44",""
"MDG_0000000026","PUBLISHED","2010","EUR","","TUR","20 [13-32]","20","13","32",""
"MDG_0000000026","PUBLISHED","2010","AFR","","TZA","460 [190-740]","460","190","740",""
"MDG_0000000026","PUBLISHED","1990","AFR","","UGA","600 [360-1000]","600","360","1000",""
"MDG_0000000026","PUBLISHED","1995","AFR","","UGA","590 [370-940]","590","370","940",""
"MDG_0000000026","PUBLISHED","2000","AFR","","UGA","530 [330-820]","530","330","820",""
"MDG_0000000026","PUBLISHED","2005","AFR","","UGA","420 [270-660]","420","270","660",""
"MDG_0000000026","PUBLISHED","2005","EUR","","UKR","25 [19-32]","25","19","32",""
"MDG_0000000026","PUBLISHED","2010","EUR","","UKR","32 [24-43]","32","24","43",""
"MDG_0000000026","PUBLISHED","1990","AMR","","URY","39 [30-50]","39","30","50",""
"MDG_0000000026","PUBLISHED","1995","AMR","","URY","35 [28-44]","35","28","44",""
"MDG_0000000026","PUBLISHED","1995","AMR","","USA","12 [10-13]","12","10","13",""
"MDG_0000000026","PUBLISHED","2000","AMR","","USA","14 [12-16]","14","12","16",""
"MDG_0000000026","PUBLISHED","2005","AMR","","USA","18 [15-20]","18","15","20",""
"MDG_0000000026","PUBLISHED","2010","AMR","","USA","21 [18-23]","21","18","23",""
"MDG_0000000026","PUBLISHED","1990","AMR","","VCT","59 [37-96]","59","37","96",""
"MDG_0000000026","PUBLISHED","1995","AMR","","VCT","87 [55-140]","87","55","140",""
"MDG_0000000026","PUBLISHED","2000","AMR","","VCT","88 [55-140]","88","55","140",""
"MDG_0000000026","PUBLISHED","2005","AMR","","VCT","64 [40-100]","64","40","100",""
"MDG_0000000026","PUBLISHED","2005","AMR","","VEN","94 [82-110]","94","82","110",""
"MDG_0000000026","PUBLISHED","2010","AMR","","VEN","92 [78-110]","92","78","110",""
"MDG_0000000026","PUBLISHED","1990","WPR","","VNM","240 [110-580]","240","110","580",""
"MDG_0000000026","PUBLISHED","1995","WPR","","VNM","160 [67-350]","160","67","350",""
"MDG_0000000026","PUBLISHED","1995","WPR","","VUT","180 [77-420]","180","77","420",""
"MDG_0000000026","PUBLISHED","2000","WPR","","VUT","120 [54-280]","120","54","280",""
"MDG_0000000026","PUBLISHED","2005","WPR","","VUT","110 [51-270]","110","51","270",""
"MDG_0000000026","PUBLISHED","2010","WPR","","VUT","110 [46-240]","110","46","240",""
"MDG_0000000026","PUBLISHED","1990","AFR","","ZAF","250 [99-480]","250","99","480",""
"MDG_0000000026","PUBLISHED","1995","AFR","","ZAF","260 [110-500]","260","110","500",""
"MDG_0000000026","PUBLISHED","2000","AFR","","ZAF","330 [180-560]","330","180","560",""
"MDG_0000000026","PUBLISHED","2005","AFR","","ZAF","360 [190-560]","360","190","560",""
"MDG_0000000026","PUBLISHED","2005","AFR","","ZMB","500 [250-810]","500","250","810",""
"MDG_0000000026","PUBLISHED","2010","AFR","","ZMB","440 [220-790]","440","220","790",""
"MDG_0000000026","PUBLISHED","1990","AFR","","ZWE","450 [210-890]","450","210","890",""
"MDG_0000000026","PUBLISHED","1995","AFR","","ZWE","540 [300-840]","540","300","840",""
"MDG_0000000026","PUBLISHED","1990","WPR","WB_LMI","WSM","260 [110-590]","260","110","590",""
"MDG_0000000026","PUBLISHED","1995","EMR","","AFG","1300 [690-2500]","1300","690","2500",""
"MDG_0000000026","PUBLISHED","2000","EMR","","AFG","1000 [550-2000]","1000","550","2000",""
"MDG_0000000026","PUBLISHED","2005","EMR","","AFG","710 [380-1300]","710","380","1300",""
"MDG_0000000026","PUBLISHED","2010","EMR","","AFG","460 [250-850]","460","250","850",""
"MDG_0000000026","PUBLISHED","1990","AFR","","AGO","1200 [520-3000]","1200","520","3000",""
"MDG_0000000026","PUBLISHED","1990","EUR","","ALB","48 [31-76]","48","31","76",""
"MDG_0000000026","PUBLISHED","1995","EUR","","ALB","43 [27-68]","43","27","68",""
"MDG_0000000026","PUBLISHED","2000","EUR","","ALB","39 [25-62]","39","25","62",""
"MDG_0000000026","PUBLISHED","2005","EUR","","ALB","31 [20-50]","31","20","50",""
"MDG_0000000026","PUBLISHED","2005","EMR","","ARE","13 [5-29]","13","5","29",""
"MDG_0000000026","PUBLISHED","2010","EMR","","ARE","12 [5-27]","12","5","27",""
"MDG_0000000026","PUBLISHED","1990","AMR","","ARG","71 [63-80]","71","63","80",""
"MDG_0000000026","PUBLISHED","1995","AMR","","ARG","60 [53-68]","60","53","68",""
"MDG_0000000026","PUBLISHED","1995","EUR","","ARM","47 [29-74]","47","29","74",""
"MDG_0000000026","PUBLISHED","2000","EUR","","ARM","38 [23-58]","38","23","58",""
"MDG_0000000026","PUBLISHED","2005","EUR","","ARM","34 [22-52]","34","22","52",""
"MDG_0000000026","PUBLISHED","2010","EUR","","ARM","30 [20-46]","30","20","46",""
"MDG_0000000026","PUBLISHED","1990","WPR","","AUS","10 [8-12]","10","8","12",""
"MDG_0000000026","PUBLISHED","1990","EUR","","AUT","10 [8-15]","10","8","15",""
"MDG_0000000026","PUBLISHED","1995","EUR","","AUT","7 [5-10]","7","5","10",""
"MDG_0000000026","PUBLISHED","2000","EUR","","AUT","5 [4-8]","5","4","8",""
"MDG_0000000026","PUBLISHED","2005","EUR","","AUT","5 [3-8]","5","3","8",""
"MDG_0000000026","PUBLISHED","2005","EUR","","AZE","52 [32-80]","52","32","80",""
"MDG_0000000026","PUBLISHED","2010","EUR","","AZE","43 [27-67]","43","27","67",""
"MDG_0000000026","PUBLISHED","1990","AFR","","BDI","1100 [460-2700]","1100","460","2700",""
"MDG_0000000026","PUBLISHED","1995","AFR","","BDI","1100 [510-2500]","1100","510","2500",""
"MDG_0000000026","PUBLISHED","2000","EUR","","BEL","9 [6-15]","9","6","15",""
"MDG_0000000026","PUBLISHED","2005","EUR","","BEL","8 [5-13]","8","5","13",""
"MDG_0000000026","PUBLISHED","2010","EUR","","BEL","8 [5-12]","8","5","12",""
"MDG_0000000026","PUBLISHED","1990","AFR","","BEN","770 [500-1400]","770","500","1400",""
"MDG_0000000026","PUBLISHED","1990","AFR","","BFA","700 [440-1200]","700","440","1200",""
"MDG_0000000026","PUBLISHED","1995","AFR","","BFA","560 [360-960]","560","360","960",""
"MDG_0000000026","PUBLISHED","2000","AFR","","BFA","450 [290-760]","450","290","760",""
"MDG_0000000026","PUBLISHED","2005","AFR","","BFA","370 [240-630]","370","240","630",""
"MDG_0000000026","PUBLISHED","2005","SEAR","","BGD","330 [190-580]","330","190","580",""
"MDG_0000000026","PUBLISHED","2010","SEAR","","BGD","240 [140-410]","240","140","410",""
"MDG_0000000026","PUBLISHED","1990","EUR","","BGR","24 [19-31]","24","19","31",""
"MDG_0000000026","PUBLISHED","1995","EUR","","BGR","23 [18-28]","23","18","28",""
"MDG_0000000026","PUBLISHED","2000","EMR","","BHR","22 [14-36]","22","14","36",""
"MDG_0000000026","PUBLISHED","2005","EMR","","BHR","21 [13-34]","21","13","34",""
"MDG_0000000026","PUBLISHED","2010","EMR","","BHR","20 [12-32]","20","12","32",""
"MDG_0000000026","PUBLISHED","1990","AMR","","BHS","52 [29-86]","52","29","86",""
"MDG_0000000026","PUBLISHED","1990","EUR","","BIH","18 [10-32]","18","10","32",""
"MDG_0000000026","PUBLISHED","1995","EUR","","BIH","14 [9-26]","14","9","26",""
"MDG_0000000026","PUBLISHED","2000","EUR","","BIH","10 [6-19]","10","6","19",""
"MDG_0000000026","PUBLISHED","2005","EUR","","BIH","9 [5-16]","9","5","16",""
"MDG_0000000026","PUBLISHED","2005","EUR","","BLR","20 [16-24]","20","16","24",""
"MDG_0000000026","PUBLISHED","2010","EUR","","BLR","4 [3-5]","4","3","5",""
"MDG_0000000026","PUBLISHED","1990","AMR","","BLZ","71 [42-120]","71","42","120",""
"MDG_0000000026","PUBLISHED","1995","AMR","","BLZ","32 [22-48]","32","22","48",""
"MDG_0000000026","PUBLISHED","2000","AMR","","BOL","280 [190-430]","280","190","430",""
"MDG_0000000026","PUBLISHED","2005","AMR","","BOL","240 [160-350]","240","160","350",""
"MDG_0000000026","PUBLISHED","2010","AMR","","BOL","190 [130-290]","190","130","290",""
"MDG_0000000026","PUBLISHED","1990","AMR","","BRA","120 [75-170]","120","75","170",""
"MDG_0000000026","PUBLISHED","1990","AMR","","BRB","120 [65-220]","120","65","220",""
"MDG_0000000026","PUBLISHED","1995","AMR","","BRB","39 [18-83]","39","18","83",""
"MDG_0000000026","PUBLISHED","2000","AMR","","BRB","49 [21-120]","49","21","120",""
"MDG_0000000026","PUBLISHED","2005","AMR","","BRB","41 [20-80]","41","20","80",""
"MDG_0000000026","PUBLISHED","2005","WPR","","BRN","25 [15-42]","25","15","42",""
"MDG_0000000026","PUBLISHED","2010","WPR","","BRN","24 [15-40]","24","15","40",""
"MDG_0000000026","PUBLISHED","1990","SEAR","","BTN","1000 [510-1900]","1000","510","1900",""
"MDG_0000000026","PUBLISHED","1995","SEAR","","BTN","670 [340-1200]","670","340","1200",""
"MDG_0000000026","PUBLISHED","2000","SEAR","","BTN","430 [220-790]","430","220","790",""
"MDG_0000000026","PUBLISHED","2000","AFR","","BWA","350 [160-640]","350","160","640",""
"MDG_0000000026","PUBLISHED","2005","AFR","","BWA","330 [140-610]","330","140","610",""
"MDG_0000000026","PUBLISHED","2010","AFR","","BWA","160 [81-260]","160","81","260",""
"MDG_0000000026","PUBLISHED","1990","AFR","","CAF","930 [530-1800]","930","530","1800",""
"MDG_0000000026","PUBLISHED","1990","AMR","","CAN","6 [5-7]","6","5","7",""
"MDG_0000000026","PUBLISHED","1995","AMR","","CAN","7 [6-9]","7","6","9",""
"MDG_0000000026","PUBLISHED","2000","AMR","","CAN","7 [6-9]","7","6","9",""
"MDG_0000000026","PUBLISHED","2005","AMR","","CAN","11 [9-14]","11","9","14",""
"MDG_0000000026","PUBLISHED","2005","EUR","","CHE","6 [4-10]","6","4","10",""
"MDG_0000000026","PUBLISHED","2010","EUR","","CHE","8 [4-15]","8","4","15",""
"MDG_0000000026","PUBLISHED","1990","AMR","","CHL","56 [48-64]","56","48","64",""
"MDG_0000000026","PUBLISHED","1995","AMR","","CHL","40 [34-46]","40","34","46",""
"MDG_0000000026","PUBLISHED","2000","AMR","","CHL","29 [25-34]","29","25","34",""
"MDG_0000000026","PUBLISHED","2000","WPR","","CHN","61 [38-97]","61","38","97",""
"MDG_0000000026","PUBLISHED","2005","WPR","","CHN","45 [28-71]","45","28","71",""
"MDG_0000000026","PUBLISHED","2010","WPR","","CHN","37 [23-58]","37","23","58",""
"MDG_0000000026","PUBLISHED","1990","AFR","","CIV","710 [450-1300]","710","450","1300",""
"MDG_0000000026","PUBLISHED","1990","AFR","","CMR","670 [400-1200]","670","400","1200",""
"MDG_0000000026","PUBLISHED","1995","AFR","","CMR","720 [430-1300]","720","430","1300",""
"MDG_0000000026","PUBLISHED","2000","AFR","","CMR","730 [450-1300]","730","450","1300",""
"MDG_0000000026","PUBLISHED","2005","AFR","","CMR","720 [450-1300]","720","450","1300",""
"MDG_0000000026","PUBLISHED","2010","AFR","","COD","540 [300-1100]","540","300","1100",""
"MDG_0000000026","PUBLISHED","1990","AFR","","COG","420 [240-820]","420","240","820",""
"MDG_0000000026","PUBLISHED","1995","AFR","","COG","480 [280-900]","480","280","900",""
"MDG_0000000026","PUBLISHED","2000","AFR","","COG","540 [320-1000]","540","320","1000",""
"MDG_0000000026","PUBLISHED","2000","AMR","","COL","130 [110-150]","130","110","150",""
"MDG_0000000026","PUBLISHED","2005","AMR","","COL","100 [88-110]","100","88","110",""
"MDG_0000000026","PUBLISHED","2010","AMR","","COL","92 [80-100]","92","80","100",""
"MDG_0000000026","PUBLISHED","1990","AFR","","COM","440 [200-1000]","440","200","1000",""
"MDG_0000000026","PUBLISHED","1990","AFR","","CPV","200 [91-510]","200","91","510",""
"MDG_0000000026","PUBLISHED","1995","AFR","","CPV","200 [88-490]","200","88","490",""
"MDG_0000000026","PUBLISHED","2000","AFR","","CPV","170 [74-400]","170","74","400",""
"MDG_0000000026","PUBLISHED","2005","AFR","","CPV","110 [51-260]","110","51","260",""
"MDG_0000000026","PUBLISHED","2010","AMR","","CRI","40 [31-50]","40","31","50",""
"MDG_0000000026","PUBLISHED","1990","AMR","","CUB","63 [55-72]","63","55","72",""
"MDG_0000000026","PUBLISHED","1995","AMR","","CUB","61 [52-70]","61","52","70",""
"MDG_0000000026","PUBLISHED","2000","AMR","","CUB","63 [54-73]","63","54","73",""
"MDG_0000000026","PUBLISHED","2000","EUR","","CYP","15 [6-34]","15","6","34",""
"MDG_0000000026","PUBLISHED","2005","EUR","","CYP","12 [5-26]","12","5","26",""
"MDG_0000000026","PUBLISHED","2010","EUR","","CYP","10 [4-23]","10","4","23",""
"MDG_0000000026","PUBLISHED","1990","EUR","","CZE","15 [12-20]","15","12","20",""
"MDG_0000000026","PUBLISHED","1990","EUR","","DEU","13 [11-15]","13","11","15",""
"MDG_0000000026","PUBLISHED","1995","EUR","","DEU","9 [7-10]","9","7","10",""
"MDG_0000000026","PUBLISHED","2000","EUR","","DEU","7 [6-8]","7","6","8",""
"MDG_0000000026","PUBLISHED","2005","EUR","","DEU","7 [6-8]","7","6","8",""
"MDG_0000000026","PUBLISHED","2010","EMR","","DJI","200 [100-410]","200","100","410",""
"MDG_0000000026","PUBLISHED","1990","EUR","","DNK","13 [9-18]","13","9","18",""
"MDG_0000000026","PUBLISHED","1995","EUR","","DNK","19 [13-26]","19","13","26",""
"MDG_0000000026","PUBLISHED","2000","EUR","","DNK","8 [5-11]","8","5","11",""
"MDG_0000000026","PUBLISHED","2000","AMR","","DOM","130 [90-180]","130","90","180",""
"MDG_0000000026","PUBLISHED","2005","AMR","","DOM","130 [95-190]","130","95","190",""
"MDG_0000000026","PUBLISHED","2010","AMR","","DOM","150 [100-210]","150","100","210",""
"MDG_0000000026","PUBLISHED","1990","AFR","","DZA","220 [120-420]","220","120","420",""
"MDG_0000000026","PUBLISHED","1990","AMR","","ECU","180 [100-310]","180","100","310",""
"MDG_0000000026","PUBLISHED","1995","AMR","","ECU","150 [87-250]","150","87","250",""
"MDG_0000000026","PUBLISHED","2000","AMR","","ECU","130 [78-220]","130","78","220",""
"MDG_0000000026","PUBLISHED","2005","AMR","","ECU","110 [66-190]","110","66","190",""
"MDG_0000000026","PUBLISHED","2010","AMR","","ECU","110 [62-180]","110","62","180",""
"MDG_0000000026","PUBLISHED","2010","EMR","","EGY","66 [40-100]","66","40","100",""
"MDG_0000000026","PUBLISHED","1990","AFR","","ERI","880 [480-1800]","880","480","1800",""
"MDG_0000000026","PUBLISHED","1995","AFR","","ERI","550 [300-1100]","550","300","1100",""
"MDG_0000000026","PUBLISHED","2000","AFR","","ERI","390 [220-740]","390","220","740",""
"MDG_0000000026","PUBLISHED","2000","EUR","","ESP","5 [4-6]","5","4","6",""
"MDG_0000000026","PUBLISHED","2005","EUR","","ESP","6 [4-7]","6","4","7",""
"MDG_0000000026","PUBLISHED","2010","EUR","","ESP","6 [4-7]","6","4","7",""
"MDG_0000000026","PUBLISHED","1990","EUR","","EST","48 [33-68]","48","33","68",""
"MDG_0000000026","PUBLISHED","1990","AFR","","ETH","950 [570-1800]","950","570","1800",""
"MDG_0000000026","PUBLISHED","1995","AFR","","ETH","880 [540-1600]","880","540","1600",""
"MDG_0000000026","PUBLISHED","2000","AFR","","ETH","700 [440-1300]","700","440","1300",""
"MDG_0000000026","PUBLISHED","2005","AFR","","ETH","510 [320-920]","510","320","920",""
"MDG_0000000026","PUBLISHED","2010","AFR","","ETH","350 [210-630]","350","210","630",""
"MDG_0000000026","PUBLISHED","2010","EUR","","FIN","5 [3-8]","5","3","8",""
"MDG_0000000026","PUBLISHED","1990","WPR","","FJI","32 [17-59]","32","17","59",""
"MDG_0000000026","PUBLISHED","1995","WPR","","FJI","33 [18-60]","33","18","60",""
"MDG_0000000026","PUBLISHED","2000","WPR","","FJI","31 [17-58]","31","17","58",""
"MDG_0000000026","PUBLISHED","2000","EUR","","FRA","10 [8-11]","10","8","11",""
"MDG_0000000026","PUBLISHED","2005","EUR","","FRA","8 [7-10]","8","7","10",""
"MDG_0000000026","PUBLISHED","2010","EUR","","FRA","8 [7-10]","8","7","10",""
"MDG_0000000026","PUBLISHED","1990","WPR","","FSM","140 [60-310]","140","60","310",""
"MDG_0000000026","PUBLISHED","1995","AFR","","GAB","260 [150-490]","260","150","490",""
"MDG_0000000026","PUBLISHED","2000","AFR","","GAB","270 [150-480]","270","150","480",""
"MDG_0000000026","PUBLISHED","2005","AFR","","GAB","260 [150-450]","260","150","450",""
"MDG_0000000026","PUBLISHED","2010","AFR","","GAB","230 [130-390]","230","130","390",""
"MDG_0000000026","PUBLISHED","2010","EUR","","GBR","12 [10-14]","12","10","14",""
"MDG_0000000026","PUBLISHED","1990","EUR","","GEO","63 [41-97]","63","41","97",""
"MDG_0000000026","PUBLISHED","1995","EUR","","GEO","75 [49-120]","75","49","120",""
"MDG_0000000026","PUBLISHED","2000","EUR","","GEO","58 [37-93]","58","37","93",""
"MDG_0000000026","PUBLISHED","2000","AFR","","GHA","550 [330-1000]","550","330","1000",""
"MDG_0000000026","PUBLISHED","2005","AFR","","GHA","440 [260-790]","440","260","790",""
"MDG_0000000026","PUBLISHED","2010","AFR","","GHA","350 [210-630]","350","210","630",""
"MDG_0000000026","PUBLISHED","1990","AFR","","GIN","1200 [740-2200]","1200","740","2200",""
"MDG_0000000026","PUBLISHED","1995","AFR","","GMB","650 [300-1500]","650","300","1500",""
"MDG_0000000026","PUBLISHED","2000","AFR","","GMB","520 [240-1200]","520","240","1200",""
"MDG_0000000026","PUBLISHED","2005","AFR","","GMB","430 [200-1100]","430","200","1100",""
"MDG_0000000026","PUBLISHED","2010","AFR","","GMB","360 [170-820]","360","170","820",""
"MDG_0000000026","PUBLISHED","2010","AFR","","GNB","790 [370-1900]","790","370","1900",""
"MDG_0000000026","PUBLISHED","1990","AFR","","GNQ","1200 [560-3200]","1200","560","3200",""
"MDG_0000000026","PUBLISHED","1995","AFR","","GNQ","1000 [460-2600]","1000","460","2600",""
"MDG_0000000026","PUBLISHED","2000","AFR","","GNQ","450 [200-1100]","450","200","1100",""
"MDG_0000000026","PUBLISHED","2000","EUR","","GRC","5 [3-8]","5","3","8",""
"MDG_0000000026","PUBLISHED","2005","EUR","","GRC","3 [2-4]","3","2","4",""
"MDG_0000000026","PUBLISHED","2010","EUR","","GRC","3 [2-5]","3","2","5",""
"MDG_0000000026","PUBLISHED","1990","AMR","","GRD","34 [21-56]","34","21","56",""
"MDG_0000000026","PUBLISHED","1995","AMR","","GTM","160 [140-180]","160","140","180",""
"MDG_0000000026","PUBLISHED","2000","AMR","","GTM","130 [110-140]","130","110","140",""
"MDG_0000000026","PUBLISHED","2005","AMR","","GTM","120 [110-140]","120","110","140",""
"MDG_0000000026","PUBLISHED","2010","AMR","","GTM","120 [110-140]","120","110","140",""
"MDG_0000000026","PUBLISHED","2010","AMR","","GUY","280 [180-430]","280","180","430",""
"MDG_0000000026","PUBLISHED","1990","AMR","","HND","220 [130-360]","220","130","360",""
"MDG_0000000026","PUBLISHED","1995","AMR","","HND","180 [110-290]","180","110","290",""
"MDG_0000000026","PUBLISHED","2000","AMR","","HND","160 [96-250]","160","96","250",""
"MDG_0000000026","PUBLISHED","2000","EUR","","HRV","11 [7-17]","11","7","17",""
"MDG_0000000026","PUBLISHED","2005","EUR","","HRV","14 [9-22]","14","9","22",""
"MDG_0000000026","PUBLISHED","2010","EUR","","HRV","17 [10-29]","17","10","29",""
"MDG_0000000026","PUBLISHED","1990","AMR","","HTI","620 [350-1100]","620","350","1100",""
"MDG_0000000026","PUBLISHED","1995","AMR","","HTI","550 [320-950]","550","320","950",""
"MDG_0000000026","PUBLISHED","1995","EUR","","HUN","23 [18-28]","23","18","28",""
"MDG_0000000026","PUBLISHED","2000","EUR","","HUN","10 [8-13]","10","8","13",""
"MDG_0000000026","PUBLISHED","2005","EUR","","HUN","10 [7-13]","10","7","13",""
"MDG_0000000026","PUBLISHED","2010","EUR","","HUN","21 [15-31]","21","15","31",""
"MDG_0000000026","PUBLISHED","2010","SEAR","","IDN","220 [130-350]","220","130","350",""
"MDG_0000000026","PUBLISHED","1990","SEAR","","IND","600 [390-920]","600","390","920",""
"MDG_0000000026","PUBLISHED","1995","SEAR","","IND","480 [320-730]","480","320","730",""
"MDG_0000000026","PUBLISHED","2000","SEAR","","IND","390 [260-600]","390","260","600",""
"MDG_0000000026","PUBLISHED","2000","EUR","","IRL","6 [4-11]","6","4","11",""
"MDG_0000000026","PUBLISHED","2005","EUR","","IRL","2 [1-3]","2","1","3",""
"MDG_0000000026","PUBLISHED","2010","EUR","","IRL","6 [3-12]","6","3","12",""
"MDG_0000000026","PUBLISHED","1990","EMR","","IRN","120 [79-170]","120","79","170",""
"MDG_0000000026","PUBLISHED","1995","EMR","","IRN","72 [51-110]","72","51","110",""
"MDG_0000000026","PUBLISHED","1995","EMR","","IRQ","84 [46-150]","84","46","150",""
"MDG_0000000026","PUBLISHED","2000","EMR","","IRQ","78 [42-140]","78","42","140",""
"MDG_0000000026","PUBLISHED","2005","EMR","","IRQ","74 [40-140]","74","40","140",""
"MDG_0000000026","PUBLISHED","2010","EMR","","IRQ","63 [34-120]","63","34","120",""
"MDG_0000000026","PUBLISHED","2010","EUR","","ISL","5 [3-9]","5","3","9",""
"MDG_0000000026","PUBLISHED","1990","EUR","","ISR","12 [9-16]","12","9","16",""
"MDG_0000000026","PUBLISHED","1995","EUR","","ISR","10 [8-13]","10","8","13",""
"MDG_0000000026","PUBLISHED","2000","EUR","","ISR","9 [7-12]","9","7","12",""
"MDG_0000000026","PUBLISHED","2000","EUR","","ITA","4 [3-5]","4","3","5",""
"MDG_0000000026","PUBLISHED","2005","EUR","","ITA","5 [4-6]","5","4","6",""
"MDG_0000000026","PUBLISHED","2010","EUR","","ITA","4 [3-5]","4","3","5",""
"MDG_0000000026","PUBLISHED","1990","AMR","","JAM","59 [42-84]","59","42","84",""
"MDG_0000000026","PUBLISHED","1995","AMR","","JAM","62 [43-88]","62","43","88",""
"MDG_0000000026","PUBLISHED","1995","EMR","","JOR","88 [52-150]","88","52","150",""
"MDG_0000000026","PUBLISHED","2000","EMR","","JOR","79 [47-140]","79","47","140",""
"MDG_0000000026","PUBLISHED","2005","EMR","","JOR","72 [42-120]","72","42","120",""
"MDG_0000000026","PUBLISHED","2010","EMR","","JOR","63 [37-110]","63","37","110",""
"MDG_0000000026","PUBLISHED","2010","WPR","","JPN","5 [5-6]","5","5","6",""
"MDG_0000000026","PUBLISHED","1990","EUR","","KAZ","92 [80-100]","92","80","100",""
"MDG_0000000026","PUBLISHED","1995","EUR","","KAZ","90 [77-100]","90","77","100",""
"MDG_0000000026","PUBLISHED","2000","EUR","","KAZ","70 [60-79]","70","60","79",""
"MDG_0000000026","PUBLISHED","2005","AFR","","KEN","450 [290-710]","450","290","710",""
"MDG_0000000026","PUBLISHED","2010","AFR","","KEN","360 [230-590]","360","230","590",""
"MDG_0000000026","PUBLISHED","1990","EUR","","KGZ","73 [45-120]","73","45","120",""
"MDG_0000000026","PUBLISHED","1995","EUR","","KGZ","98 [60-160]","98","60","160",""
"MDG_0000000026","PUBLISHED","1995","WPR","","KHM","750 [470-1300]","750","470","1300",""
"MDG_0000000026","PUBLISHED","2000","WPR","","KHM","510 [330-830]","510","330","830",""
"MDG_0000000026","PUBLISHED","2005","WPR","","KHM","340 [220-550]","340","220","550",""
"MDG_0000000026","PUBLISHED","2010","WPR","","KHM","250 [160-390]","250","160","390",""
"MDG_0000000026","PUBLISHED","2010","WPR","","KOR","16 [13-19]","16","13","19",""
"MDG_0000000026","PUBLISHED","1990","EMR","","KWT","11 [5-23]","11","5","23",""
"MDG_0000000026","PUBLISHED","1995","EMR","","KWT","10 [7-16]","10","7","16",""
"MDG_0000000026","PUBLISHED","2000","EMR","","KWT","9 [6-14]","9","6","14",""
"MDG_0000000026","PUBLISHED","2005","WPR","","LAO","650 [360-1100]","650","360","1100",""
"MDG_0000000026","PUBLISHED","2010","WPR","","LAO","470 [260-840]","470","260","840",""
"MDG_0000000026","PUBLISHED","1990","EMR","","LBN","52 [28-96]","52","28","96",""
"MDG_0000000026","PUBLISHED","1995","EMR","","LBN","46 [25-84]","46","25","84",""
"MDG_0000000026","PUBLISHED","1995","AFR","","LBR","1900 [1000-3900]","1900","1000","3900",""
"MDG_0000000026","PUBLISHED","2000","AFR","","LBR","1300 [730-2600]","1300","730","2600",""
"MDG_0000000026","PUBLISHED","2005","AFR","","LBR","1100 [620-2200]","1100","620","2200",""
"MDG_0000000026","PUBLISHED","2010","AFR","","LBR","770 [430-1500]","770","430","1500",""
"MDG_0000000026","PUBLISHED","2010","EMR","","LBY","58 [25-130]","58","25","130",""
"MDG_0000000026","PUBLISHED","1990","AMR","","LCA","64 [40-100]","64","40","100",""
"MDG_0000000026","PUBLISHED","1995","AMR","","LCA","55 [35-86]","55","35","86",""
"MDG_0000000026","PUBLISHED","2000","AMR","","LCA","46 [29-71]","46","29","71",""
"MDG_0000000026","PUBLISHED","2005","AMR","","LCA","40 [25-62]","40","25","62",""
"MDG_0000000026","PUBLISHED","2005","SEAR","","LKA","44 [31-62]","44","31","62",""
"MDG_0000000026","PUBLISHED","2010","SEAR","","LKA","35 [25-49]","35","25","49",""
"MDG_0000000026","PUBLISHED","1990","AFR","","LSO","520 [270-1000]","520","270","1000",""
"MDG_0000000026","PUBLISHED","1995","AFR","","LSO","540 [310-990]","540","310","990",""
"MDG_0000000026","PUBLISHED","1995","EUR","","LTU","21 [16-28]","21","16","28",""
"MDG_0000000026","PUBLISHED","2000","EUR","","LTU","21 [15-30]","21","15","30",""
"MDG_0000000026","PUBLISHED","2005","EUR","","LTU","11 [8-16]","11","8","16",""
"MDG_0000000026","PUBLISHED","2010","EUR","","LTU","8 [5-12]","8","5","12",""
"MDG_0000000026","PUBLISHED","2010","EUR","","LUX","20 [4-93]","20","4","93",""
"MDG_0000000026","PUBLISHED","1990","EUR","","LVA","57 [44-75]","57","44","75",""
"MDG_0000000026","PUBLISHED","1995","EUR","","LVA","58 [44-77]","58","44","77",""
"MDG_0000000026","PUBLISHED","2000","EUR","","LVA","43 [31-61]","43","31","61",""
"MDG_0000000026","PUBLISHED","2005","EUR","","LVA","21 [15-29]","21","15","29",""
"MDG_0000000026","PUBLISHED","2005","EMR","","MAR","130 [79-220]","130","79","220",""
"MDG_0000000026","PUBLISHED","2010","EMR","","MAR","100 [62-170]","100","62","170",""
"MDG_0000000026","PUBLISHED","1990","EUR","","MDA","62 [50-75]","62","50","75",""
"MDG_0000000026","PUBLISHED","1995","EUR","","MDA","60 [49-73]","60","49","73",""
"MDG_0000000026","PUBLISHED","1995","AFR","","MDG","550 [360-900]","550","360","900",""
"MDG_0000000026","PUBLISHED","2000","AFR","","MDG","400 [270-660]","400","270","660",""
"MDG_0000000026","PUBLISHED","2005","AFR","","MDG","310 [200-500]","310","200","500",""
"MDG_0000000026","PUBLISHED","2010","AFR","","MDG","240 [160-400]","240","160","400",""
"MDG_0000000026","PUBLISHED","2010","SEAR","","MDV","60 [35-99]","60","35","99",""
"MDG_0000000026","PUBLISHED","1990","AMR","","MEX","92 [80-100]","92","80","100",""
"MDG_0000000026","PUBLISHED","1995","AMR","","MEX","85 [75-95]","85","75","95",""
"MDG_0000000026","PUBLISHED","2000","AMR","","MEX","82 [71-92]","82","71","92",""
"MDG_0000000026","PUBLISHED","2005","AMR","","MEX","54 [47-60]","54","47","60",""
"MDG_0000000026","PUBLISHED","2005","EUR","","MKD","10 [6-18]","10","6","18",""
"MDG_0000000026","PUBLISHED","2010","EUR","","MKD","10 [3-31]","10","3","31",""
"MDG_0000000026","PUBLISHED","1990","AFR","","MLI","1100 [720-1900]","1100","720","1900",""
"MDG_0000000026","PUBLISHED","1995","AFR","","MLI","930 [600-1600]","930","600","1600",""
"MDG_0000000026","PUBLISHED","1995","EUR","","MLT","13 [8-20]","13","8","20",""
"MDG_0000000026","PUBLISHED","2000","EUR","","MLT","12 [7-19]","12","7","19",""
"MDG_0000000026","PUBLISHED","2005","EUR","","MLT","10 [6-16]","10","6","16",""
"MDG_0000000026","PUBLISHED","2010","EUR","","MLT","8 [5-14]","8","5","14",""
"MDG_0000000026","PUBLISHED","1990","EUR","","MNE","8 [5-14]","8","5","14",""
"MDG_0000000026","PUBLISHED","1995","EUR","","MNE","10 [6-17]","10","6","17",""
"MDG_0000000026","PUBLISHED","2000","EUR","","MNE","11 [6-19]","11","6","19",""
"MDG_0000000026","PUBLISHED","2005","EUR","","MNE","9 [5-15]","9","5","15",""
"MDG_0000000026","PUBLISHED","2005","WPR","","MNG","84 [36-190]","84","36","190",""
"MDG_0000000026","PUBLISHED","2010","WPR","","MNG","63 [27-140]","63","27","140",""
"MDG_0000000026","PUBLISHED","1990","AFR","","MOZ","910 [500-1800]","910","500","1800",""
"MDG_0000000026","PUBLISHED","1995","AFR","","MOZ","800 [450-1600]","800","450","1600",""
"MDG_0000000026","PUBLISHED","1995","AFR","","MRT","690 [390-1300]","690","390","1300",""
"MDG_0000000026","PUBLISHED","2000","AFR","","MRT","630 [360-1200]","630","360","1200",""
"MDG_0000000026","PUBLISHED","2005","AFR","","MRT","560 [320-1100]","560","320","1100",""
"MDG_0000000026","PUBLISHED","2010","AFR","","MRT","510 [280-990]","510","280","990",""
"MDG_0000000026","PUBLISHED","1990","AFR","","MWI","1100 [680-1900]","1100","680","1900",""
"MDG_0000000026","PUBLISHED","1995","AFR","","MWI","1000 [660-1700]","1000","660","1700",""
"MDG_0000000026","PUBLISHED","2000","AFR","","MWI","840 [540-1300]","840","540","1300",""
"MDG_0000000026","PUBLISHED","2005","AFR","","MWI","630 [400-1000]","630","400","1000",""
"MDG_0000000026","PUBLISHED","2005","WPR","","MYS","34 [15-73]","34","15","73",""
"MDG_0000000026","PUBLISHED","2010","WPR","","MYS","29 [12-64]","29","12","64",""
"MDG_0000000026","PUBLISHED","1990","AFR","","NAM","200 [100-380]","200","100","380",""
"MDG_0000000026","PUBLISHED","1995","AFR","","NAM","200 [120-350]","200","120","350",""
"MDG_0000000026","PUBLISHED","1995","AFR","","NER","1100 [660-2000]","1100","660","2000",""
"MDG_0000000026","PUBLISHED","2000","AFR","","NER","870 [530-1600]","870","530","1600",""
"MDG_0000000026","PUBLISHED","2005","AFR","","NER","720 [440-1300]","720","440","1300",""
"MDG_0000000026","PUBLISHED","2010","AFR","","NER","590 [360-1100]","590","360","1100",""
"MDG_0000000026","PUBLISHED","1990","AFR","","NGA","1100 [590-2100]","1100","590","2100",""
"MDG_0000000026","PUBLISHED","1990","AMR","","NIC","170 [95-310]","170","95","310",""
"MDG_0000000026","PUBLISHED","1995","AMR","","NIC","150 [87-280]","150","87","280",""
"MDG_0000000026","PUBLISHED","2000","AMR","","NIC","130 [74-230]","130","74","230",""
"MDG_0000000026","PUBLISHED","2005","AMR","","NIC","110 [61-190]","110","61","190",""
"MDG_0000000026","PUBLISHED","2005","EUR","","NLD","8 [6-11]","8","6","11",""
"MDG_0000000026","PUBLISHED","2010","EUR","","NLD","6 [4-7]","6","4","7",""
"MDG_0000000026","PUBLISHED","1990","EUR","","NOR","9 [6-14]","9","6","14",""
"MDG_0000000026","PUBLISHED","1995","EUR","","NOR","4 [3-6]","4","3","6",""
"MDG_0000000026","PUBLISHED","1995","SEAR","","NPL","550 [310-990]","550","310","990",""
"MDG_0000000026","PUBLISHED","2000","SEAR","","NPL","360 [210-640]","360","210","640",""
"MDG_0000000026","PUBLISHED","2005","SEAR","","NPL","250 [140-430]","250","140","430",""
"MDG_0000000026","PUBLISHED","2010","SEAR","","NPL","170 [100-290]","170","100","290",""
"MDG_0000000026","PUBLISHED","1990","WPR","","NZL","18 [13-24]","18","13","24",""
"MDG_0000000026","PUBLISHED","1990","EMR","","OMN","110 [67-190]","110","67","190",""
"MDG_0000000026","PUBLISHED","1995","EMR","","OMN","74 [44-120]","74","44","120",""
"MDG_0000000026","PUBLISHED","2000","EMR","","OMN","51 [31-82]","51","31","82",""
"MDG_0000000026","PUBLISHED","2005","EMR","","OMN","39 [24-63]","39","24","63",""
"MDG_0000000026","PUBLISHED","2005","EMR","","PAK","310 [170-590]","310","170","590",""
"MDG_0000000026","PUBLISHED","2010","EMR","","PAK","260 [150-500]","260","150","500",""
"MDG_0000000026","PUBLISHED","1990","AMR","","PAN","100 [85-120]","100","85","120",""
"MDG_0000000026","PUBLISHED","1995","AMR","","PAN","110 [91-130]","110","91","130",""
"MDG_0000000026","PUBLISHED","1995","AMR","","PER","170 [100-280]","170","100","280",""
"MDG_0000000026","PUBLISHED","2000","AMR","","PER","120 [75-190]","120","75","190",""
"MDG_0000000026","PUBLISHED","2005","AMR","","PER","90 [57-140]","90","57","140",""
"MDG_0000000026","PUBLISHED","2010","AMR","","PER","67 [42-110]","67","42","110",""
"MDG_0000000026","PUBLISHED","1990","WPR","","PHL","170 [120-260]","170","120","260",""
"MDG_0000000026","PUBLISHED","1990","WPR","","PNG","390 [180-920]","390","180","920",""
"MDG_0000000026","PUBLISHED","1995","WPR","","PNG","330 [140-760]","330","140","760",""
"MDG_0000000026","PUBLISHED","2000","WPR","","PNG","310 [140-680]","310","140","680",""
"MDG_0000000026","PUBLISHED","2005","WPR","","PNG","270 [120-620]","270","120","620",""
"MDG_0000000026","PUBLISHED","2005","EUR","","POL","5 [4-6]","5","4","6",""
"MDG_0000000026","PUBLISHED","2010","EUR","","POL","5 [4-6]","5","4","6",""
"MDG_0000000026","PUBLISHED","1990","SEAR","","PRK","97 [40-230]","97","40","230",""
"MDG_0000000026","PUBLISHED","1995","SEAR","","PRK","140 [61-340]","140","61","340",""
"MDG_0000000026","PUBLISHED","2000","EUR","","PRT","8 [6-11]","8","6","11",""
"MDG_0000000026","PUBLISHED","2005","EUR","","PRT","8 [6-11]","8","6","11",""
"MDG_0000000026","PUBLISHED","2010","EUR","","PRT","8 [5-11]","8","5","11",""
"MDG_0000000026","PUBLISHED","1990","AMR","","PRY","120 [70-200]","120","70","200",""
"MDG_0000000026","PUBLISHED","1990","EMR","","QAT","15 [6-38]","15","6","38",""
"MDG_0000000026","PUBLISHED","1995","EMR","","QAT","13 [5-30]","13","5","30",""
"MDG_0000000026","PUBLISHED","2000","EMR","","QAT","11 [5-24]","11","5","24",""
"MDG_0000000026","PUBLISHED","2005","EMR","","QAT","9 [4-21]","9","4","21",""
"MDG_0000000026","PUBLISHED","2005","EUR","","ROU","30 [25-35]","30","25","35",""
"MDG_0000000026","PUBLISHED","2010","EUR","","ROU","27 [23-32]","27","23","32",""
"MDG_0000000026","PUBLISHED","1990","EUR","","RUS","74 [64-84]","74","64","84",""
"MDG_0000000026","PUBLISHED","1995","EUR","","RUS","72 [63-82]","72","63","82",""
"MDG_0000000026","PUBLISHED","2000","AFR","","RWA","840 [520-1400]","840","520","1400",""
"MDG_0000000026","PUBLISHED","2005","AFR","","RWA","550 [340-950]","550","340","950",""
"MDG_0000000026","PUBLISHED","2010","AFR","","RWA","340 [200-590]","340","200","590",""
"MDG_0000000026","PUBLISHED","1990","EMR","","SAU","44 [23-85]","44","23","85",""
"MDG_0000000026","PUBLISHED","1990","EMR","","SDN","1000 [530-1900]","1000","530","1900",""
"MDG_0000000026","PUBLISHED","1995","EMR","","SDN","930 [490-1800]","930","490","1800",""
"MDG_0000000026","PUBLISHED","2000","EMR","","SDN","870 [450-1600]","870","450","1600",""
"MDG_0000000026","PUBLISHED","2005","EMR","","SDN","800 [420-1500]","800","420","1500",""
"MDG_0000000026","PUBLISHED","2005","AFR","","SEN","430 [270-740]","430","270","740",""
"MDG_0000000026","PUBLISHED","2010","AFR","","SEN","370 [230-640]","370","230","640",""
"MDG_0000000026","PUBLISHED","1990","WPR","","SGP","6 [4-8]","6","4","8",""
"MDG_0000000026","PUBLISHED","1995","WPR","","SGP","6 [4-9]","6","4","9",""
"MDG_0000000026","PUBLISHED","2000","WPR","","SLB","120 [51-260]","120","51","260",""
"MDG_0000000026","PUBLISHED","2005","WPR","","SLB","110 [46-250]","110","46","250",""
"MDG_0000000026","PUBLISHED","2010","WPR","","SLB","93 [41-220]","93","41","220",""
"MDG_0000000026","PUBLISHED","1990","AFR","","SLE","1300 [720-2500]","1300","720","2500",""
"MDG_0000000026","PUBLISHED","1990","AMR","","SLV","150 [100-230]","150","100","230",""
"MDG_0000000026","PUBLISHED","1995","AMR","","SLV","130 [87-190]","130","87","190",""
"MDG_0000000026","PUBLISHED","2000","AMR","","SLV","110 [73-160]","110","73","160",""
"MDG_0000000026","PUBLISHED","2005","AMR","","SLV","94 [64-140]","94","64","140",""
"MDG_0000000026","PUBLISHED","2005","EMR","","SOM","1000 [450-2500]","1000","450","2500",""
"MDG_0000000026","PUBLISHED","2010","EMR","","SOM","1000 [460-2400]","1000","460","2400",""
"MDG_0000000026","PUBLISHED","1990","EUR","","SRB","23 [14-37]","23","14","37",""
"MDG_0000000026","PUBLISHED","1995","EUR","","SRB","25 [16-40]","25","16","40",""
"MDG_0000000026","PUBLISHED","2000","EUR","","SRB","12 [9-15]","12","9","15",""
"MDG_0000000026","PUBLISHED","2000","AFR","","STP","110 [57-210]","110","57","210",""
"MDG_0000000026","PUBLISHED","2005","AFR","","STP","87 [47-180]","87","47","180",""
"MDG_0000000026","PUBLISHED","2010","AFR","","STP","70 [38-140]","70","38","140",""
"MDG_0000000026","PUBLISHED","1990","AMR","","SUR","84 [64-110]","84","64","110",""
"MDG_0000000026","PUBLISHED","1990","EUR","","SVK","15 [11-19]","15","11","19",""
"MDG_0000000026","PUBLISHED","1995","EUR","","SVK","10 [7-15]","10","7","15",""
"MDG_0000000026","PUBLISHED","2000","EUR","","SVK","13 [9-19]","13","9","19",""
"MDG_0000000026","PUBLISHED","2005","EUR","","SVK","6 [4-8]","6","4","8",""
"MDG_0000000026","PUBLISHED","2005","EUR","","SVN","14 [7-29]","14","7","29",""
"MDG_0000000026","PUBLISHED","2010","EUR","","SVN","12 [5-30]","12","5","30",""
"MDG_0000000026","PUBLISHED","1990","EUR","","SWE","6 [4-8]","6","4","8",""
"MDG_0000000026","PUBLISHED","1995","EUR","","SWE","5 [3-7]","5","3","7",""
"MDG_0000000026","PUBLISHED","2000","EUR","","SWE","5 [3-7]","5","3","7",""
"MDG_0000000026","PUBLISHED","2000","AFR","","SWZ","360 [190-730]","360","190","730",""
"MDG_0000000026","PUBLISHED","2005","AFR","","SWZ","420 [200-910]","420","200","910",""
"MDG_0000000026","PUBLISHED","2010","AFR","","SWZ","320 [160-670]","320","160","670",""
"MDG_0000000026","PUBLISHED","1990","EMR","","SYR","240 [140-390]","240","140","390",""
"MDG_0000000026","PUBLISHED","1990","AFR","","TCD","920 [540-1800]","920","540","1800",""
"MDG_0000000026","PUBLISHED","1995","AFR","","TCD","1000 [620-2000]","1000","620","2000",""
"MDG_0000000026","PUBLISHED","2000","AFR","","TCD","1100 [680-2100]","1100","680","2100",""
"MDG_0000000026","PUBLISHED","2005","AFR","","TCD","1100 [650-2000]","1100","650","2000",""
"MDG_0000000026","PUBLISHED","2010","AFR","","TGO","300 [180-530]","300","180","530",""
"MDG_0000000026","PUBLISHED","1990","SEAR","","THA","54 [35-84]","54","35","84",""
"MDG_0000000026","PUBLISHED","1995","SEAR","","THA","54 [37-79]","54","37","79",""
"MDG_0000000026","PUBLISHED","2000","SEAR","","THA","66 [44-95]","66","44","95",""
"MDG_0000000026","PUBLISHED","2000","EUR","","TJK","120 [52-280]","120","52","280",""
"MDG_0000000026","PUBLISHED","2005","EUR","","TJK","79 [34-190]","79","34","190",""
"MDG_0000000026","PUBLISHED","2010","EUR","","TJK","65 [29-150]","65","29","150",""
"MDG_0000000026","PUBLISHED","1990","EUR","","TKM","82 [35-190]","82","35","190",""
"MDG_0000000026","PUBLISHED","1990","SEAR","","TLS","1000 [550-1900]","1000","550","1900",""
"MDG_0000000026","PUBLISHED","1995","SEAR","","TLS","880 [460-1600]","880","460","1600",""
"MDG_0000000026","PUBLISHED","2000","SEAR","","TLS","610 [320-1200]","610","320","1200",""
"MDG_0000000026","PUBLISHED","2005","SEAR","","TLS","410 [220-780]","410","220","780",""
"MDG_0000000026","PUBLISHED","2010","WPR","","TON","110 [50-260]","110","50","260",""
"MDG_0000000026","PUBLISHED","1990","AMR","","TTO","86 [69-110]","86","69","110",""
"MDG_0000000026","PUBLISHED","1995","AMR","","TTO","90 [70-120]","90","70","120",""
"MDG_0000000026","PUBLISHED","2000","AMR","","TTO","59 [45-76]","59","45","76",""
"MDG_0000000026","PUBLISHED","2000","EMR","","TUN","84 [44-160]","84","44","160",""
"MDG_0000000026","PUBLISHED","2005","EMR","","TUN","68 [35-130]","68","35","130",""
"MDG_0000000026","PUBLISHED","2010","EMR","","TUN","56 [29-110]","56","29","110",""
"MDG_0000000026","PUBLISHED","1990","EUR","","TUR","67 [44-100]","67","44","100",""
"MDG_0000000026","PUBLISHED","1990","AFR","","TZA","870 [350-1500]","870","350","1500",""
"MDG_0000000026","PUBLISHED","1995","AFR","","TZA","840 [350-1400]","840","350","1400",""
"MDG_0000000026","PUBLISHED","2000","AFR","","TZA","730 [310-1200]","730","310","1200",""
"MDG_0000000026","PUBLISHED","2005","AFR","","TZA","610 [260-980]","610","260","980",""
"MDG_0000000026","PUBLISHED","2010","AFR","","UGA","310 [200-500]","310","200","500",""
"MDG_0000000026","PUBLISHED","1990","EUR","","UKR","49 [38-58]","49","38","58",""
"MDG_0000000026","PUBLISHED","1995","EUR","","UKR","45 [35-54]","45","35","54",""
"MDG_0000000026","PUBLISHED","2000","EUR","","UKR","35 [27-42]","35","27","42",""
"MDG_0000000026","PUBLISHED","2000","AMR","","URY","35 [28-44]","35","28","44",""
"MDG_0000000026","PUBLISHED","2005","AMR","","URY","31 [23-41]","31","23","41",""
"MDG_0000000026","PUBLISHED","2010","AMR","","URY","29 [21-39]","29","21","39",""
"MDG_0000000026","PUBLISHED","1990","AMR","","USA","12 [11-14]","12","11","14",""
"MDG_0000000026","PUBLISHED","1990","EUR","","UZB","59 [52-69]","59","52","69",""
"MDG_0000000026","PUBLISHED","1995","EUR","","UZB","36 [32-42]","36","32","42",""
"MDG_0000000026","PUBLISHED","2000","EUR","","UZB","33 [29-38]","33","29","38",""
"MDG_0000000026","PUBLISHED","2005","EUR","","UZB","32 [28-38]","32","28","38",""
"MDG_0000000026","PUBLISHED","2010","EUR","","UZB","28 [23-34]","28","23","34",""
"MDG_0000000026","PUBLISHED","2010","AMR","","VCT","48 [30-78]","48","30","78",""
"MDG_0000000026","PUBLISHED","1990","AMR","","VEN","94 [82-110]","94","82","110",""
"MDG_0000000026","PUBLISHED","1995","AMR","","VEN","98 [85-110]","98","85","110",""
"MDG_0000000026","PUBLISHED","2000","AMR","","VEN","91 [79-100]","91","79","100",""
"MDG_0000000026","PUBLISHED","2000","WPR","","VNM","100 [45-240]","100","45","240",""
"MDG_0000000026","PUBLISHED","2005","WPR","","VNM","74 [33-170]","74","33","170",""
"MDG_0000000026","PUBLISHED","2010","WPR","","VNM","59 [27-130]","59","27","130",""
"MDG_0000000026","PUBLISHED","1990","WPR","","VUT","220 [96-510]","220","96","510",""
"MDG_0000000026","PUBLISHED","1990","EMR","","YEM","610 [320-1200]","610","320","1200",""
"MDG_0000000026","PUBLISHED","1995","EMR","","YEM","520 [280-980]","520","280","980",""
"MDG_0000000026","PUBLISHED","2000","EMR","","YEM","380 [200-710]","380","200","710",""
"MDG_0000000026","PUBLISHED","2005","EMR","","YEM","270 [150-500]","270","150","500",""
"MDG_0000000026","PUBLISHED","2010","EMR","","YEM","200 [110-370]","200","110","370",""
"MDG_0000000026","PUBLISHED","2010","AFR","","ZAF","300 [150-500]","300","150","500",""
"MDG_0000000026","PUBLISHED","1990","AFR","","ZMB","470 [230-930]","470","230","930",""
"MDG_0000000026","PUBLISHED","1995","AFR","","ZMB","530 [280-890]","530","280","890",""
"MDG_0000000026","PUBLISHED","2000","AFR","","ZMB","540 [280-870]","540","280","870",""
"MDG_0000000026","PUBLISHED","2000","AFR","","ZWE","640 [340-1000]","640","340","1000",""
"MDG_0000000026","PUBLISHED","2005","AFR","","ZWE","690 [370-1100]","690","370","1100",""
"MDG_0000000026","PUBLISHED","2010","AFR","","ZWE","570 [320-920]","570","320","920",""
"MDG_0000000026","PUBLISHED","2010","WPR","WB_LMI","WSM","100 [47-230]","100","47","230",""
"MDG_0000000026","PUBLISHED","2005","WPR","WB_LMI","WSM","120 [54-280]","120","54","280",""
"MDG_0000000026","PUBLISHED","2000","WPR","WB_LMI","WSM","150 [64-340]","150","64","340",""
"MDG_0000000026","PUBLISHED","1995","WPR","WB_LMI","WSM","180 [81-410]","180","81","410",""

